===============================================================================
Running with 10 support instances - 0.4 similarity.
Number of CQAs: 121

Unary query : ?answer <http://conference#was_a_member_of> <http://conference-instances#oc-1409861683>.
Number of matched answers :10
Number of correspondences found: 2
1.3882783882783882 <-> <http://ekaw-instances#conference-1409861683> <http://ekaw#organisedBy> ?answer. 
1.3882783882783882 <-> ?answer <http://ekaw#organises> <http://ekaw-instances#conference-1409861683>. 

Binary query : ?answer0 <http://conference#gives_presentations> ?answer1.
Number of matched answers :10
Number of correspondences found: 19
1.108695652173913 <-> ?answer0 <http://ekaw#organises> ?v1.  ?v1 <http://ekaw#hasEvent> ?answer1.  ?answer1 a <http://ekaw#Individual_Presentation>.  
1.108695652173913 <-> ?v1 <http://ekaw#writtenBy> ?answer0.  ?v2 <http://ekaw#topicCoveredBy> ?v1.  ?v2 <http://ekaw#topicCoveredBy> ?answer1.  ?answer1 a <http://ekaw#Individual_Presentation>.  
1.108695652173913 <-> ?answer0 <http://ekaw#authorOf> ?v1.  ?answer1 <http://ekaw#presentationOfPaper> ?v1.  ?answer1 a <http://ekaw#Individual_Presentation>.  
1.108695652173913 <-> ?v1 <http://ekaw#writtenBy> ?answer0.  ?answer1 <http://ekaw#presentationOfPaper> ?v1.  ?answer1 a <http://ekaw#Individual_Presentation>.  
1.108695652173913 <-> ?v1 <http://ekaw#writtenBy> ?answer0.  ?v2 <http://ekaw#topicCoveredBy> ?v1.  ?answer1 <http://ekaw#coversTopic> ?v2.  ?answer1 a <http://ekaw#Individual_Presentation>.  
1.108695652173913 <-> ?answer0 <http://ekaw#authorOf> ?v1.  ?v2 <http://ekaw#topicCoveredBy> ?v1.  ?v2 <http://ekaw#topicCoveredBy> ?answer1.  ?answer1 a <http://ekaw#Individual_Presentation>.  
1.108695652173913 <-> ?v1 <http://ekaw#writtenBy> ?answer0.  ?v2 <http://ekaw#updatedVersionOf> ?v1.  ?answer1 <http://ekaw#presentationOfPaper> ?v2.  ?answer1 a <http://ekaw#Individual_Presentation>.  
1.108695652173913 <-> ?v1 <http://ekaw#organisedBy> ?answer0.  ?answer1 <http://ekaw#partOf> ?v1.  ?answer1 a <http://ekaw#Individual_Presentation>.  
1.108695652173913 <-> ?answer0 <http://ekaw#organises> ?v1.  ?answer1 <http://ekaw#partOf> ?v1.  ?answer1 a <http://ekaw#Individual_Presentation>.  
1.108695652173913 <-> ?v1 <http://ekaw#writtenBy> ?answer0.  ?v1 <http://ekaw#hasUpdatedVersion> ?v2.  ?answer1 <http://ekaw#presentationOfPaper> ?v2.  ?answer1 a <http://ekaw#Individual_Presentation>.  
1.108695652173913 <-> ?v1 <http://ekaw#writtenBy> ?answer0.  ?v1 <http://ekaw#coversTopic> ?v2.  ?v2 <http://ekaw#topicCoveredBy> ?answer1.  ?answer1 a <http://ekaw#Individual_Presentation>.  
1.108695652173913 <-> ?answer0 <http://ekaw#authorOf> ?v1.  ?v1 <http://ekaw#coversTopic> ?v2.  ?v2 <http://ekaw#topicCoveredBy> ?answer1.  ?answer1 a <http://ekaw#Individual_Presentation>.  
1.108695652173913 <-> ?v1 <http://ekaw#organisedBy> ?answer0.  ?v1 <http://ekaw#hasEvent> ?answer1.  ?answer1 a <http://ekaw#Individual_Presentation>.  
1.582379862700229 <-> ?answer0 <http://ekaw#authorOf> ?v1.  ?v1 <http://ekaw#paperPresentedAs> ?answer1.  ?answer1 a <http://ekaw#Individual_Presentation>.  
1.582379862700229 <-> ?v1 <http://ekaw#writtenBy> ?answer0.  ?v1 <http://ekaw#paperPresentedAs> ?answer1.  ?answer1 a <http://ekaw#Individual_Presentation>.  
1.582379862700229 <-> ?v1 <http://ekaw#writtenBy> ?answer0.  ?v1 <http://ekaw#hasUpdatedVersion> ?v2.  ?v2 <http://ekaw#paperPresentedAs> ?answer1.  ?answer1 a <http://ekaw#Individual_Presentation>.  
1.582379862700229 <-> ?answer0 <http://ekaw#authorOf> ?v1.  ?v1 <http://ekaw#hasUpdatedVersion> ?v2.  ?v2 <http://ekaw#paperPresentedAs> ?answer1.  ?answer1 a <http://ekaw#Individual_Presentation>.  
1.582379862700229 <-> ?answer0 <http://ekaw#authorOf> ?v1.  ?v2 <http://ekaw#updatedVersionOf> ?v1.  ?v2 <http://ekaw#paperPresentedAs> ?answer1.  ?answer1 a <http://ekaw#Individual_Presentation>.  
1.582379862700229 <-> ?v1 <http://ekaw#writtenBy> ?answer0.  ?v2 <http://ekaw#updatedVersionOf> ?v1.  ?v2 <http://ekaw#paperPresentedAs> ?answer1.  ?answer1 a <http://ekaw#Individual_Presentation>.  

Unary query : ?answer <http://conference#was_a_member_of> <http://conference-instances#pc1428971814>.
Number of matched answers :10
Number of correspondences found: 3
0.4666666666666667 <-> ?answer <http://www.w3.org/1999/02/22-rdf-syntax-ns#type> <http://ekaw#PC_Member>. 
1.3518867924528302 <-> <http://ekaw-instances#conference1428971814> <http://ekaw#organisedBy> ?answer. 
1.3518867924528302 <-> ?answer <http://ekaw#organises> <http://ekaw-instances#conference1428971814>. 

Unary query : ?answer a <http://conference#Important_dates>.
Number of matched answers :0
Number of correspondences found: 0

Binary query : ?answer0 <http://conference#was_a_committee_of> ?answer1.
Number of matched answers :10
Number of correspondences found: 0

Unary query : ?answer a <http://conference#Review>.
Number of matched answers :10
Number of correspondences found: 2
0.6666666666666669 <-> ?someSubject <http://ekaw#hasReview> ?answer. 
1.0 <-> ?answer <http://www.w3.org/1999/02/22-rdf-syntax-ns#type> <http://ekaw#Review>. 

Unary query : ?answer a <http://conference#Registeered_applicant>.
Number of matched answers :10
Number of correspondences found: 1
0.5357142857142857 <-> ?answer <http://www.w3.org/1999/02/22-rdf-syntax-ns#type> <http://ekaw#Early-Registered_Participant>. 

Unary query : ?answer <http://conference#is_submitted_at> <http://conference-instances#conference-1409861683>.
Number of matched answers :10
Number of correspondences found: 3
0.5333333333333333 <-> ?answer <http://www.w3.org/1999/02/22-rdf-syntax-ns#type> <http://ekaw#Submitted_Paper>. 
1.478468899521531 <-> ?answer <http://ekaw#paperInVolume> <http://ekaw-instances#proceedings-1409861683>. 
1.478468899521531 <-> <http://ekaw-instances#proceedings-1409861683> <http://ekaw#volumeContainsPaper> ?answer. 

Binary query : ?answer0 <http://conference#is_a_full_paper_submission_date> ?answer1.
Number of matched answers :0
Number of correspondences found: 0

Unary query : ?answer a <http://conference#Program_committee>.
Number of matched answers :0
Number of correspondences found: 0

Unary query : ?answer a <http://conference#Rejected_contribution>.
Number of matched answers :10
Number of correspondences found: 1
0.47619047619047616 <-> ?answer <http://www.w3.org/1999/02/22-rdf-syntax-ns#type> <http://ekaw#Rejected_Paper>. 

Unary query : ?answer a <http://conference#Person>.
Number of matched answers :10
Number of correspondences found: 1
1.0 <-> ?answer <http://www.w3.org/1999/02/22-rdf-syntax-ns#type> <http://ekaw#Person>. 

Unary query : ?answer a <http://conference#Extended_abstract>.
Number of matched answers :10
Number of correspondences found: 1
0.5238095238095238 <-> ?answer <http://www.w3.org/1999/02/22-rdf-syntax-ns#type> <http://ekaw#Invited_Talk_Abstract>. 

Unary query : ?answer a <http://conference#Chair>.
Number of matched answers :10
Number of correspondences found: 3
0.4 <-> ?answer <http://www.w3.org/1999/02/22-rdf-syntax-ns#type> ?y. ?y a <http://www.w3.org/2002/07/owl#Class>. 
0.625 <-> ?answer <http://www.w3.org/1999/02/22-rdf-syntax-ns#type> <http://ekaw#PC_Chair>. 
0.625 <-> ?answer <http://www.w3.org/1999/02/22-rdf-syntax-ns#type> <http://ekaw#OC_Chair>. 

Unary query : ?answer a <http://conference#Publisher>.
Number of matched answers :5
Number of correspondences found: 1
0.8181818181818181 <-> ?answer <http://ekaw#publisherOf> ?someObject. 

Unary query : ?answer a <http://conference#Invited_talk>.
Number of matched answers :10
Number of correspondences found: 1
1.0 <-> ?answer <http://www.w3.org/1999/02/22-rdf-syntax-ns#type> <http://ekaw#Invited_Talk>. 

Binary query : ?answer0 <http://conference#belong_to_a_conference_volume> ?answer1.
Number of matched answers :10
Number of correspondences found: 0

Binary query : ?answer0 <http://conference#was_a_member_of> ?answer1.
Number of matched answers :10
Number of correspondences found: 0

Binary query : ?answer0 <http://conference#has_an_organizing_committee> ?answer1.
Number of matched answers :5
Number of correspondences found: 0

Binary query : ?answer0 <http://conference#was_a_steering_committee_of> ?answer1.
Number of matched answers :5
Number of correspondences found: 0

Unary query : ?answer <http://conference#is_submitted_at> <http://conference-instances#conference1428971814>.
Number of matched answers :10
Number of correspondences found: 3
0.5333333333333333 <-> ?answer <http://www.w3.org/1999/02/22-rdf-syntax-ns#type> <http://ekaw#Submitted_Paper>. 
1.4690476190476192 <-> ?answer <http://ekaw#paperInVolume> <http://ekaw-instances#proceedings1428971814>. 
1.4690476190476192 <-> <http://ekaw-instances#proceedings1428971814> <http://ekaw#volumeContainsPaper> ?answer. 

Binary query : ?answer0 <http://conference#has_authors> ?answer1.
Number of matched answers :10
Number of correspondences found: 3
1.0833333333333333 <-> ?answer0 <http://ekaw#writtenBy> ?answer1.  ?answer1 a <http://ekaw#Paper_Author>.  
1.0833333333333333 <-> ?answer0 <http://ekaw#reviewWrittenBy> ?answer1.  ?answer1 a <http://ekaw#Paper_Author>.  
1.5378787878787878 <-> ?answer1 <http://ekaw#authorOf> ?answer0.  ?answer1 a <http://ekaw#Paper_Author>.  

Unary query : ?answer <http://conference#was_a_member_of> <http://conference-instances#sc1428971814>.
Number of matched answers :10
Number of correspondences found: 1
0.5333333333333333 <-> ?answer <http://www.w3.org/1999/02/22-rdf-syntax-ns#type> <http://ekaw#SC_Member>. 

Unary query : ?answer a <http://conference#Committee_member>.
Number of matched answers :10
Number of correspondences found: 6
0.5 <-> ?answer <http://ekaw#authorOf> ?y. ?y a <http://ekaw#Submitted_Paper>. 
0.5 <-> ?answer <http://www.w3.org/1999/02/22-rdf-syntax-ns#type> <http://ekaw#OC_Member>. 
0.5 <-> ?x <http://ekaw#writtenBy> ?answer. ?x a <http://ekaw#Submitted_Paper>. 
0.5 <-> ?x <http://ekaw#hasReviewer> ?answer. ?x a <http://ekaw#Submitted_Paper>. 
0.5 <-> ?answer <http://ekaw#reviewerOfPaper> ?y. ?y a <http://ekaw#Submitted_Paper>. 

Unary query : ?answer <http://conference#was_a_member_of> <http://conference-instances#sc-104081973>.
Number of matched answers :10
Number of correspondences found: 1
0.5333333333333333 <-> ?answer <http://www.w3.org/1999/02/22-rdf-syntax-ns#type> <http://ekaw#SC_Member>. 

Unary query : ?answer <http://conference#is_submitted_at> <http://conference-instances#conference943277065>.
Number of matched answers :10
Number of correspondences found: 3
0.5333333333333333 <-> ?answer <http://www.w3.org/1999/02/22-rdf-syntax-ns#type> <http://ekaw#Submitted_Paper>. 
1.3222222222222222 <-> ?answer <http://ekaw#paperInVolume> <http://ekaw-instances#proceedings943277065>. 
1.3222222222222222 <-> <http://ekaw-instances#proceedings943277065> <http://ekaw#volumeContainsPaper> ?answer. 

Binary query : ?answer0 <http://conference#has_the_last_name> ?answer1.
Number of matched answers :10
Number of correspondences found: 0

Unary query : ?answer a <http://conference#Tutorial>.
Number of matched answers :10
Number of correspondences found: 1
1.0 <-> ?answer <http://www.w3.org/1999/02/22-rdf-syntax-ns#type> <http://ekaw#Tutorial>. 

Binary query : ?answer0 <http://conference#has_a_volume> ?answer1.
Number of matched answers :5
Number of correspondences found: 0

Unary query : ?answer <http://conference#was_a_member_of> <http://conference-instances#pc-1409861683>.
Number of matched answers :10
Number of correspondences found: 1
0.4666666666666667 <-> ?answer <http://www.w3.org/1999/02/22-rdf-syntax-ns#type> <http://ekaw#PC_Member>. 

Unary query : ?answer a <http://conference#Paid_applicant>.
Number of matched answers :10
Number of correspondences found: 6
0.0 <-> ?answer <http://www.w3.org/1999/02/22-rdf-syntax-ns#type> <http://ekaw#Person>. 
0.0 <-> ?answer <http://www.w3.org/1999/02/22-rdf-syntax-ns#type> <http://ekaw#Early-Registered_Participant>. 
0.0 <-> ?answer <http://ekaw#authorOf> ?someObject. 
0.0 <-> <http://ekaw-instances#review-14962518438312198_-196548216> <http://ekaw#reviewWrittenBy> ?answer. 
0.0 <-> ?answer <http://www.w3.org/2000/01/rdf-schema#label> "Paul Muni". 
0.0 <-> ?someSubject <http://ekaw#writtenBy> ?answer. 

Binary query : ?answer0 <http://conference#has_an_abstract> ?answer1.
Number of matched answers :10
Number of correspondences found: 0

Binary query : ?answer0 <http://conference#has_a_location> ?answer1.
Number of matched answers :5
Number of correspondences found: 2
1.0714285714285714 <-> ?answer0 <http://ekaw#heldIn> ?v1.  ?v1 a <http://ekaw#Location>.  ?v1 <http://www.w3.org/2000/01/rdf-schema#label> ?answer1.  
1.5 <-> ?v1 <http://ekaw#locationOf> ?answer0.  ?v1 a <http://ekaw#Location>.  ?v1 <http://www.w3.org/2000/01/rdf-schema#label> ?answer1.  

Binary query : ?answer0 <http://conference#is_submitted_at> ?answer1.
Number of matched answers :10
Number of correspondences found: 18
0.5 <-> ?v1 <http://ekaw#authorOf> ?answer0.  ?answer1 <http://ekaw#organisedBy> ?v1.  
0.5 <-> ?answer0 <http://ekaw#paperPresentedAs> ?v1.  ?v1 <http://ekaw#partOf> ?answer1.  
0.5 <-> ?v1 <http://ekaw#presentationOfPaper> ?answer0.  ?answer1 <http://ekaw#hasEvent> ?v1.  
0.5 <-> ?answer0 <http://ekaw#writtenBy> ?v1.  ?v1 <http://ekaw#organises> ?answer1.  
0.5 <-> ?v1 <http://ekaw#presentationOfPaper> ?answer0.  ?v1 <http://ekaw#partOf> ?answer1.  
1.0333333333333332 <-> ?answer0 a <http://ekaw#Submitted_Paper>.  ?v1 <http://ekaw#reviewerOfPaper> ?answer0.  ?v1 <http://ekaw#organises> ?answer1.  
1.0333333333333332 <-> ?answer0 a <http://ekaw#Submitted_Paper>.  ?v1 <http://ekaw#topicCoveredBy> ?answer0.  ?v2 <http://ekaw#coversTopic> ?v1.  ?v2 <http://ekaw#partOf> ?answer1.  
1.0333333333333332 <-> ?answer0 a <http://ekaw#Submitted_Paper>.  ?v1 <http://ekaw#topicCoveredBy> ?answer0.  ?v1 <http://ekaw#topicCoveredBy> ?v2.  ?v2 <http://ekaw#partOf> ?answer1.  
1.0333333333333332 <-> ?answer0 a <http://ekaw#Submitted_Paper>.  ?answer0 <http://ekaw#hasReviewer> ?v1.  ?v1 <http://ekaw#organises> ?answer1.  
1.0333333333333332 <-> ?answer0 a <http://ekaw#Submitted_Paper>.  ?v1 <http://ekaw#topicCoveredBy> ?answer0.  ?v1 <http://ekaw#topicCoveredBy> ?answer1.  
1.0333333333333332 <-> ?answer0 a <http://ekaw#Submitted_Paper>.  ?v1 <http://ekaw#topicCoveredBy> ?answer0.  ?v1 <http://ekaw#topicCoveredBy> ?v2.  ?answer1 <http://ekaw#hasEvent> ?v2.  
1.0333333333333332 <-> ?answer0 a <http://ekaw#Submitted_Paper>.  ?answer0 <http://ekaw#coversTopic> ?v1.  ?v1 <http://ekaw#topicCoveredBy> ?v2.  ?v2 <http://ekaw#partOf> ?answer1.  
1.0333333333333332 <-> ?answer0 a <http://ekaw#Submitted_Paper>.  ?v1 <http://ekaw#topicCoveredBy> ?answer0.  ?v2 <http://ekaw#coversTopic> ?v1.  ?answer1 <http://ekaw#hasEvent> ?v2.  
1.0333333333333332 <-> ?answer0 a <http://ekaw#Submitted_Paper>.  ?answer0 <http://ekaw#coversTopic> ?v1.  ?v1 <http://ekaw#topicCoveredBy> ?answer1.  
1.0333333333333332 <-> ?answer0 a <http://ekaw#Submitted_Paper>.  ?answer0 <http://ekaw#writtenBy> ?v1.  ?v1 <http://ekaw#organises> ?answer1.  
1.0333333333333332 <-> ?answer0 a <http://ekaw#Submitted_Paper>.  ?v1 <http://ekaw#reviewerOfPaper> ?answer0.  ?answer1 <http://ekaw#organisedBy> ?v1.  
1.0333333333333332 <-> ?answer0 a <http://ekaw#Submitted_Paper>.  ?v1 <http://ekaw#topicCoveredBy> ?answer0.  ?answer1 <http://ekaw#coversTopic> ?v1.  
1.0333333333333332 <-> ?answer0 a <http://ekaw#Submitted_Paper>.  ?answer0 <http://ekaw#coversTopic> ?v1.  ?v1 <http://ekaw#topicCoveredBy> ?v2.  ?answer1 <http://ekaw#hasEvent> ?v2.  

Unary query : ?answer a <http://conference#Contribution_co-author>.
Number of matched answers :10
Number of correspondences found: 5
0.0 <-> ?answer <http://ekaw#authorOf> ?someObject. 
0.0 <-> ?someSubject <http://ekaw#writtenBy> ?answer. 
0.0 <-> <http://ekaw-instances#review-14962518438312198_-196548216> <http://ekaw#reviewWrittenBy> ?answer. 
0.0 <-> ?answer <http://www.w3.org/2000/01/rdf-schema#label> "Harold Harefoot". 
0.0 <-> ?answer <http://www.w3.org/1999/02/22-rdf-syntax-ns#type> <http://ekaw#Early-Registered_Participant>. 

Binary query : ?answer0 <http://conference#has_a_review> ?answer1.
Number of matched answers :10
Number of correspondences found: 7
1.0333333333333332 <-> ?answer1 <http://ekaw#reviewOfPaper> ?answer0.  ?answer1 a <http://ekaw#Negative_Review>.  
1.0714285714285714 <-> ?answer1 <http://ekaw#reviewOfPaper> ?answer0.  ?answer1 a <http://ekaw#Neutral_Review>.  
1.0714285714285714 <-> ?v1 <http://ekaw#hasUpdatedVersion> ?answer0.  ?answer1 <http://ekaw#reviewOfPaper> ?v1.  ?answer1 a <http://ekaw#Neutral_Review>.  
1.7833333333333332 <-> ?answer0 <http://ekaw#hasReview> ?answer1.  ?answer1 a <http://ekaw#Negative_Review>.  
1.8214285714285714 <-> ?v1 <http://ekaw#hasUpdatedVersion> ?answer0.  ?v1 <http://ekaw#hasReview> ?answer1.  ?answer1 a <http://ekaw#Neutral_Review>.  
1.8214285714285714 <-> ?answer0 <http://ekaw#updatedVersionOf> ?v1.  ?v1 <http://ekaw#hasReview> ?answer1.  ?answer1 a <http://ekaw#Neutral_Review>.  
1.8214285714285716 <-> ?answer0 <http://ekaw#hasReview> ?answer1.  ?answer1 a <http://ekaw#Neutral_Review>.  

Binary query : ?answer0 <http://conference#is_a_topis_of_conference_parts> ?answer1.
Number of matched answers :10
Number of correspondences found: 2
0.5 <-> ?answer0 <http://ekaw#topicCoveredBy> ?answer1.  
0.5 <-> ?answer1 <http://ekaw#coversTopic> ?answer0.  

Unary query : ?answer a <http://conference#Paper>.
Number of matched answers :10
Number of correspondences found: 5
1.0 <-> ?answer <http://ekaw#hasUpdatedVersion> ?y. ?y a <http://ekaw#Paper>. 
1.0 <-> ?answer <http://www.w3.org/1999/02/22-rdf-syntax-ns#type> <http://ekaw#Paper>. 
1.0 <-> ?answer <http://ekaw#updatedVersionOf> ?y. ?y a <http://ekaw#Paper>. 
1.0 <-> ?x <http://ekaw#updatedVersionOf> ?answer. ?x a <http://ekaw#Paper>. 
1.0 <-> ?x <http://ekaw#hasUpdatedVersion> ?answer. ?x a <http://ekaw#Paper>. 

Unary query : ?answer <http://conference#was_a_member_of> <http://conference-instances#sc-1409861683>.
Number of matched answers :10
Number of correspondences found: 1
0.5333333333333333 <-> ?answer <http://www.w3.org/1999/02/22-rdf-syntax-ns#type> <http://ekaw#SC_Member>. 

Unary query : ?answer a <http://conference#Conference_contributor>.
Number of matched answers :10
Number of correspondences found: 3
0.5454545454545454 <-> ?answer <http://ekaw#reviewerOfPaper> ?y. ?y a <http://ekaw#Conference_Paper>. 
0.5454545454545454 <-> ?x <http://ekaw#writtenBy> ?answer. ?x a <http://ekaw#Conference_Paper>. 
0.5454545454545454 <-> ?answer <http://ekaw#authorOf> ?y. ?y a <http://ekaw#Conference_Paper>. 

Unary query : ?answer a <http://conference#Track>.
Number of matched answers :10
Number of correspondences found: 1
1.0 <-> ?answer <http://www.w3.org/1999/02/22-rdf-syntax-ns#type> <http://ekaw#Track>. 

Binary query : ?answer0 <http://conference#was_a_committee_chair_of> ?answer1.
Number of matched answers :10
Number of correspondences found: 0

Binary query : ?answer0 <http://conference#has_a_name> ?answer1.
Number of matched answers :10
Number of correspondences found: 1
0.5 <-> ?answer0 <http://www.w3.org/2000/01/rdf-schema#label> ?answer1.  

Unary query : ?answer a <http://conference#Presentation>.
Number of matched answers :10
Number of correspondences found: 1
0.6315789473684211 <-> ?answer <http://ekaw#presentationOfPaper> ?someObject. 

Unary query : ?answer a <http://conference#Steering_committee>.
Number of matched answers :0
Number of correspondences found: 0

Unary query : ?answer <http://conference#was_a_member_of> <http://conference-instances#oc1428971814>.
Number of matched answers :10
Number of correspondences found: 2
1.379816513761468 <-> <http://ekaw-instances#conference1428971814> <http://ekaw#organisedBy> ?answer. 
1.379816513761468 <-> ?answer <http://ekaw#organises> <http://ekaw-instances#conference1428971814>. 

Binary query : ?answer0 <http://conference#is_an_abstract_submission_date> ?answer1.
Number of matched answers :0
Number of correspondences found: 0

Unary query : ?answer a <http://conference#Active_conference_participant>.
Number of matched answers :10
Number of correspondences found: 1
0.7586206896551724 <-> ?answer <http://www.w3.org/1999/02/22-rdf-syntax-ns#type> <http://ekaw#Conference_Participant>. 

Binary query : ?answer0 <http://conference#has_tracks> ?answer1.
Number of matched answers :10
Number of correspondences found: 2
0.5 <-> ?answer1 <http://ekaw#partOf> ?answer0.  
0.5 <-> ?answer0 <http://ekaw#hasEvent> ?answer1.  

Unary query : ?answer a <http://conference#Organization>.
Number of matched answers :10
Number of correspondences found: 1
0.9166666666666666 <-> ?answer <http://www.w3.org/1999/02/22-rdf-syntax-ns#type> <http://ekaw#Organisation>. 

Binary query : ?answer0 <http://conference#is_given_by> ?answer1.
Number of matched answers :10
Number of correspondences found: 12
0.5 <-> ?v1 <http://ekaw#topicCoveredBy> ?answer0.  ?v2 <http://ekaw#coversTopic> ?v1.  ?answer1 <http://ekaw#authorOf> ?v2.  
0.5 <-> ?answer0 <http://ekaw#coversTopic> ?v1.  ?v1 <http://ekaw#topicCoveredBy> ?v2.  ?v2 <http://ekaw#writtenBy> ?answer1.  
0.5 <-> ?answer0 <http://ekaw#presentationOfPaper> ?v1.  ?v1 <http://ekaw#updatedVersionOf> ?v2.  ?v2 <http://ekaw#writtenBy> ?answer1.  
0.5 <-> ?answer0 <http://ekaw#presentationOfPaper> ?v1.  ?v2 <http://ekaw#hasUpdatedVersion> ?v1.  ?v2 <http://ekaw#writtenBy> ?answer1.  
0.5 <-> ?v1 <http://ekaw#paperPresentedAs> ?answer0.  ?v1 <http://ekaw#updatedVersionOf> ?v2.  ?v2 <http://ekaw#writtenBy> ?answer1.  
0.5 <-> ?answer0 <http://ekaw#presentationOfPaper> ?v1.  ?v1 <http://ekaw#writtenBy> ?answer1.  
0.5 <-> ?v1 <http://ekaw#paperPresentedAs> ?answer0.  ?v1 <http://ekaw#writtenBy> ?answer1.  
0.5 <-> ?v1 <http://ekaw#paperPresentedAs> ?answer0.  ?v2 <http://ekaw#hasUpdatedVersion> ?v1.  ?answer1 <http://ekaw#authorOf> ?v2.  
0.5 <-> ?v1 <http://ekaw#paperPresentedAs> ?answer0.  ?v2 <http://ekaw#hasUpdatedVersion> ?v1.  ?v2 <http://ekaw#writtenBy> ?answer1.  
0.5 <-> ?v1 <http://ekaw#paperPresentedAs> ?answer0.  ?answer1 <http://ekaw#authorOf> ?v1.  
0.5 <-> ?v1 <http://ekaw#paperPresentedAs> ?answer0.  ?v1 <http://ekaw#updatedVersionOf> ?v2.  ?answer1 <http://ekaw#authorOf> ?v2.  
0.5 <-> ?answer0 <http://ekaw#presentationOfPaper> ?v1.  ?answer1 <http://ekaw#authorOf> ?v1.  

Unary query : ?answer <http://conference#was_a_member_of> <http://conference-instances#pc69622803>.
Number of matched answers :10
Number of correspondences found: 4
0.4666666666666667 <-> ?answer <http://www.w3.org/1999/02/22-rdf-syntax-ns#type> <http://ekaw#PC_Member>. 
0.5333333333333333 <-> ?answer <http://www.w3.org/1999/02/22-rdf-syntax-ns#type> <http://ekaw#SC_Member>. 
1.2586206896551724 <-> ?answer <http://ekaw#organises> <http://ekaw-instances#conference69622803>. 
1.2586206896551724 <-> <http://ekaw-instances#conference69622803> <http://ekaw#organisedBy> ?answer. 

Unary query : ?answer a <http://conference#Regular_contribution>.
Number of matched answers :10
Number of correspondences found: 3
0.44999999999999996 <-> ?x <http://ekaw#hasUpdatedVersion> ?answer. ?x a <http://ekaw#Regular_Paper>. 
0.44999999999999996 <-> ?answer <http://ekaw#updatedVersionOf> ?y. ?y a <http://ekaw#Regular_Paper>. 
0.44999999999999996 <-> ?answer <http://www.w3.org/1999/02/22-rdf-syntax-ns#type> <http://ekaw#Regular_Paper>. 

Unary query : ?answer a <http://conference#Topic>.
Number of matched answers :10
Number of correspondences found: 1
0.4545454545454547 <-> ?someSubject <http://ekaw#coversTopic> ?answer. 

Binary query : ?answer0 <http://conference#has_a_publisher> ?answer1.
Number of matched answers :5
Number of correspondences found: 1
0.9666666666666666 <-> ?answer1 <http://ekaw#publisherOf> ?answer0.  

Binary query : ?answer0 <http://conference#has_workshops> ?answer1.
Number of matched answers :10
Number of correspondences found: 2
1.1153846153846152 <-> ?answer0 <http://ekaw#hasEvent> ?answer1.  ?answer1 a <http://ekaw#Workshop>.  
1.1153846153846152 <-> ?answer1 <http://ekaw#partOf> ?answer0.  ?answer1 a <http://ekaw#Workshop>.  

Unary query : ?answer a <http://conference#Abstract>.
Number of matched answers :10
Number of correspondences found: 1
1.0 <-> ?answer <http://www.w3.org/1999/02/22-rdf-syntax-ns#type> <http://ekaw#Abstract>. 

Unary query : ?answer <http://conference#was_a_member_of> <http://conference-instances#pc943277065>.
Number of matched answers :10
Number of correspondences found: 4
0.4666666666666667 <-> ?answer <http://www.w3.org/1999/02/22-rdf-syntax-ns#type> <http://ekaw#PC_Member>. 
0.5333333333333333 <-> ?answer <http://www.w3.org/1999/02/22-rdf-syntax-ns#type> <http://ekaw#SC_Member>. 
1.1763157894736844 <-> <http://ekaw-instances#conference943277065> <http://ekaw#organisedBy> ?answer. 
1.1763157894736844 <-> ?answer <http://ekaw#organises> <http://ekaw-instances#conference943277065>. 

Binary query : ?answer0 <http://conference#was_a_track-workshop_chair_of> ?answer1.
Number of matched answers :10
Number of correspondences found: 2
0.5 <-> ?answer1 <http://ekaw#organisedBy> ?answer0.  
0.5 <-> ?answer0 <http://ekaw#organises> ?answer1.  

Unary query : ?answer a <http://conference#Organizing_committee>.
Number of matched answers :0
Number of correspondences found: 0

Binary query : ?answer0 <http://conference#reviews> ?answer1.
Number of matched answers :10
Number of correspondences found: 5
1.8186813186813187 <-> ?answer0 a <http://ekaw#Review>.  ?answer0 <http://ekaw#reviewOfPaper> ?v1.  ?v1 <http://ekaw#hasUpdatedVersion> ?answer1.  
1.8186813186813189 <-> ?answer0 a <http://ekaw#Review>.  ?answer0 <http://ekaw#reviewOfPaper> ?answer1.  
1.9126984126984126 <-> ?answer0 a <http://ekaw#Review>.  ?answer1 <http://ekaw#hasReview> ?answer0.  
1.9126984126984128 <-> ?answer0 a <http://ekaw#Review>.  ?v1 <http://ekaw#hasReview> ?answer0.  ?answer1 <http://ekaw#updatedVersionOf> ?v1.  
1.9126984126984128 <-> ?answer0 a <http://ekaw#Review>.  ?v1 <http://ekaw#hasReview> ?answer0.  ?v1 <http://ekaw#hasUpdatedVersion> ?answer1.  

Unary query : ?answer a <http://conference#Written_contribution>.
Number of matched answers :10
Number of correspondences found: 1
0.39999999999999997 <-> ?answer <http://ekaw#writtenBy> ?someObject. 

Binary query : ?answer0 <http://conference#has_the_first_name> ?answer1.
Number of matched answers :10
Number of correspondences found: 0

Binary query : ?answer0 <http://conference#was_a_program_committee_of> ?answer1.
Number of matched answers :5
Number of correspondences found: 0

Unary query : ?answer a <http://conference#Passive_conference_participant>.
Number of matched answers :10
Number of correspondences found: 1
0.7333333333333334 <-> ?answer <http://www.w3.org/1999/02/22-rdf-syntax-ns#type> <http://ekaw#Conference_Participant>. 

Binary query : ?answer0 <http://conference#has_a_track-workshop-tutorial_topic> ?answer1.
Number of matched answers :10
Number of correspondences found: 2
0.5 <-> ?answer0 <http://ekaw#coversTopic> ?answer1.  
0.5 <-> ?answer1 <http://ekaw#topicCoveredBy> ?answer0.  

Unary query : ?answer a <http://conference#Track-workshop_chair>.
Number of matched answers :10
Number of correspondences found: 3
0.0 <-> ?answer <http://ekaw#reviewerOfPaper> ?someObject. 
0.0 <-> ?answer <http://ekaw#authorOf> <http://ekaw-instances#review-11921963886712198_-196548216>. 
0.7 <-> ?answer <http://www.w3.org/1999/02/22-rdf-syntax-ns#type> <http://ekaw#Workshop_Chair>. 

Unary query : ?answer a <http://conference#Conference_participant>.
Number of matched answers :10
Number of correspondences found: 5
0.6363636363636364 <-> ?x <http://ekaw#hasReviewer> ?answer. ?x a <http://ekaw#Conference_Paper>. 
0.6363636363636364 <-> ?x <http://ekaw#writtenBy> ?answer. ?x a <http://ekaw#Conference_Paper>. 
0.6363636363636364 <-> ?answer <http://ekaw#authorOf> ?y. ?y a <http://ekaw#Conference_Paper>. 
0.6363636363636364 <-> ?answer <http://ekaw#reviewerOfPaper> ?y. ?y a <http://ekaw#Conference_Paper>. 
1.0 <-> ?answer <http://www.w3.org/1999/02/22-rdf-syntax-ns#type> <http://ekaw#Conference_Participant>. 

Binary query : ?answer0 <http://conference#has_tutorials> ?answer1.
Number of matched answers :10
Number of correspondences found: 2
1.1153846153846152 <-> ?answer1 <http://ekaw#partOf> ?answer0.  ?answer1 a <http://ekaw#Tutorial>.  
1.1153846153846152 <-> ?answer0 <http://ekaw#hasEvent> ?answer1.  ?answer1 a <http://ekaw#Tutorial>.  

Unary query : ?answer <http://conference#is_submitted_at> <http://conference-instances#conference69622803>.
Number of matched answers :10
Number of correspondences found: 3
0.5555555555555556 <-> ?answer <http://www.w3.org/1999/02/22-rdf-syntax-ns#type> <http://ekaw#Conference_Paper>. 
1.3937621832358675 <-> <http://ekaw-instances#proceedings69622803> <http://ekaw#volumeContainsPaper> ?answer. 
1.3937621832358675 <-> ?answer <http://ekaw#paperInVolume> <http://ekaw-instances#proceedings69622803>. 

Unary query : ?answer a <http://conference#Conference>.
Number of matched answers :5
Number of correspondences found: 5
0.6666666666666666 <-> ?answer <http://ekaw#hasPart> ?y. ?y a <http://ekaw#Conference_Trip>. 
0.6666666666666667 <-> ?x <http://ekaw#partOf> ?answer. ?x a <http://ekaw#Conference_Trip>. 
0.6666666666666667 <-> ?x <http://ekaw#partOfEvent> ?answer. ?x a <http://ekaw#Conference_Trip>. 
0.6666666666666667 <-> ?answer <http://ekaw#hasEvent> ?y. ?y a <http://ekaw#Conference_Trip>. 
1.0 <-> ?answer <http://www.w3.org/1999/02/22-rdf-syntax-ns#type> <http://ekaw#Conference>. 

Unary query : ?answer <http://conference#was_a_member_of> <http://conference-instances#oc-104081973>.
Number of matched answers :10
Number of correspondences found: 2
1.3757009345794393 <-> ?answer <http://ekaw#organises> <http://ekaw-instances#conference-104081973>. 
1.3757009345794393 <-> <http://ekaw-instances#conference-104081973> <http://ekaw#organisedBy> ?answer. 

Binary query : ?answer0 <http://conference#has_a_program_committee> ?answer1.
Number of matched answers :5
Number of correspondences found: 0

Unary query : ?answer a <http://conference#Conference_document>.
Number of matched answers :10
Number of correspondences found: 13
0.5263157894736843 <-> ?answer <http://ekaw#partOf> ?y. ?y a <http://ekaw#Conference>. 
0.631578947368421 <-> ?answer <http://ekaw#reviewOfPaper> ?y. ?y a <http://ekaw#Conference_Paper>. 
0.631578947368421 <-> ?x <http://ekaw#hasUpdatedVersion> ?answer. ?x a <http://ekaw#Conference_Paper>. 
0.631578947368421 <-> ?x <http://ekaw#hasReview> ?answer. ?x a <http://ekaw#Conference_Paper>. 
0.631578947368421 <-> ?answer <http://www.w3.org/1999/02/22-rdf-syntax-ns#type> <http://ekaw#Conference_Paper>. 
0.631578947368421 <-> ?answer <http://ekaw#updatedVersionOf> ?y. ?y a <http://ekaw#Conference_Paper>. 
0.6363636363636364 <-> ?x <http://ekaw#reviewerOfPaper> ?answer. ?x a <http://ekaw#Conference_Participant>. 
0.6363636363636364 <-> ?answer <http://ekaw#hasReviewer> ?y. ?y a <http://ekaw#Conference_Participant>. 
0.6363636363636364 <-> ?answer <http://ekaw#writtenBy> ?y. ?y a <http://ekaw#Conference_Participant>. 
0.6363636363636364 <-> ?x <http://ekaw#authorOf> ?answer. ?x a <http://ekaw#Conference_Participant>. 
0.6363636363636364 <-> ?answer <http://ekaw#paperInVolume> ?y. ?y a <http://ekaw#Conference_Proceedings>. 
0.6363636363636364 <-> ?x <http://ekaw#volumeContainsPaper> ?answer. ?x a <http://ekaw#Conference_Proceedings>. 
0.6363636363636364 <-> ?answer <http://ekaw#reviewWrittenBy> ?y. ?y a <http://ekaw#Conference_Participant>. 

Binary query : ?answer0 <http://conference#is_a_date_of_camera_ready_paper_submission> ?answer1.
Number of matched answers :0
Number of correspondences found: 0

Unary query : ?answer a <http://conference#Workshop>.
Number of matched answers :10
Number of correspondences found: 1
1.0 <-> ?answer <http://www.w3.org/1999/02/22-rdf-syntax-ns#type> <http://ekaw#Workshop>. 

Binary query : ?answer0 <http://conference#is_a_date_of_acceptance_announcement> ?answer1.
Number of matched answers :0
Number of correspondences found: 0

Unary query : ?answer a <http://conference#Regular_author>.
Number of matched answers :10
Number of correspondences found: 5
0.5714285714285714 <-> ?answer <http://www.w3.org/1999/02/22-rdf-syntax-ns#type> <http://ekaw#Paper_Author>. 
0.6428571428571428 <-> ?x <http://ekaw#writtenBy> ?answer. ?x a <http://ekaw#Regular_Paper>. 
0.6428571428571428 <-> ?answer <http://ekaw#reviewerOfPaper> ?y. ?y a <http://ekaw#Regular_Paper>. 
0.6428571428571428 <-> ?answer <http://ekaw#authorOf> ?y. ?y a <http://ekaw#Regular_Paper>. 
0.6428571428571428 <-> ?x <http://ekaw#hasReviewer> ?answer. ?x a <http://ekaw#Regular_Paper>. 

Unary query : ?answer a <http://conference#Reviewer>.
Number of matched answers :10
Number of correspondences found: 4
0.7272727272727274 <-> ?someSubject <http://ekaw#hasReviewer> ?answer. 
0.75 <-> ?answer <http://ekaw#authorOf> ?y. ?y a <http://ekaw#Review>. 
0.75 <-> ?x <http://ekaw#writtenBy> ?answer. ?x a <http://ekaw#Review>. 
1.18921568627451 <-> ?x <http://ekaw#reviewWrittenBy> ?answer. ?x a <http://ekaw#Review>. 

Unary query : ?answer a <http://conference#Accepted_contribution>.
Number of matched answers :10
Number of correspondences found: 3
0.47619047619047616 <-> ?answer <http://www.w3.org/1999/02/22-rdf-syntax-ns#type> <http://ekaw#Accepted_Paper>. 
0.47619047619047616 <-> ?answer <http://ekaw#updatedVersionOf> ?y. ?y a <http://ekaw#Accepted_Paper>. 
0.47619047619047616 <-> ?x <http://ekaw#hasUpdatedVersion> ?answer. ?x a <http://ekaw#Accepted_Paper>. 

Binary query : ?answer0 <http://conference#has_members> ?answer1.
Number of matched answers :10
Number of correspondences found: 0

Binary query : ?answer0 <http://conference#has_parts> ?answer1.
Number of matched answers :10
Number of correspondences found: 2
0.5 <-> ?answer1 <http://ekaw#partOf> ?answer0.  
0.9444444444444444 <-> ?answer0 <http://ekaw#hasEvent> ?answer1.  

Unary query : ?answer a <http://conference#Conference_contribution>.
Number of matched answers :10
Number of correspondences found: 6
0.5652173913043479 <-> ?answer <http://ekaw#writtenBy> ?y. ?y a <http://ekaw#Conference_Participant>. 
0.5652173913043479 <-> ?x <http://ekaw#authorOf> ?answer. ?x a <http://ekaw#Conference_Participant>. 
0.5652173913043479 <-> ?answer <http://ekaw#hasReviewer> ?y. ?y a <http://ekaw#Conference_Participant>. 

Unary query : ?answer a <http://conference#Late_paid_applicant>.
Number of matched answers :10
Number of correspondences found: 1
0.4444444444444444 <-> ?answer <http://www.w3.org/1999/02/22-rdf-syntax-ns#type> <http://ekaw#Late-Registered_Participant>. 

Unary query : ?answer <http://conference#was_a_member_of> <http://conference-instances#pc-104081973>.
Number of matched answers :10
Number of correspondences found: 2
0.5333333333333333 <-> ?answer <http://www.w3.org/1999/02/22-rdf-syntax-ns#type> <http://ekaw#SC_Member>. 

Unary query : ?answer a <http://conference#Reviewed_contribution>.
Number of matched answers :10
Number of correspondences found: 8
0.0 <-> ?answer <http://ekaw#coversTopic> ?someObject. 
0.0 <-> <http://ekaw-instances#topic-516522145> <http://ekaw#topicCoveredBy> ?answer. 
0.0 <-> ?answer <http://www.w3.org/1999/02/22-rdf-syntax-ns#type> <http://ekaw#Rejected_Paper>. 
0.0 <-> ?answer <http://ekaw#hasReviewer> ?someObject. 
0.0 <-> ?answer <http://ekaw#updatedVersionOf> <http://ekaw-instances#paper-6716170885672198>. 
0.0 <-> ?answer <http://www.w3.org/1999/02/22-rdf-syntax-ns#type> <http://ekaw#Conference_Paper>. 
0.0 <-> ?answer <http://www.w3.org/1999/02/22-rdf-syntax-ns#type> <http://ekaw#Document>. 
0.0 <-> ?answer <http://www.w3.org/1999/02/22-rdf-syntax-ns#type> <http://ekaw#Assigned_Paper>. 

Unary query : ?answer a <http://conference#Early_paid_applicant>.
Number of matched answers :10
Number of correspondences found: 1
0.4642857142857143 <-> ?answer <http://www.w3.org/1999/02/22-rdf-syntax-ns#type> <http://ekaw#Early-Registered_Participant>. 

Binary query : ?answer0 <http://conference#has_a_track-workshop-tutorial_chair> ?answer1.
Number of matched answers :10
Number of correspondences found: 2
0.5 <-> ?answer1 <http://ekaw#organises> ?answer0.  
0.5 <-> ?answer0 <http://ekaw#organisedBy> ?answer1.  

Unary query : ?answer a <http://conference#Camera_ready_contribution>.
Number of matched answers :10
Number of correspondences found: 3
0.56 <-> ?x <http://ekaw#updatedVersionOf> ?answer. ?x a <http://ekaw#Camera_Ready_Paper>. 
0.56 <-> ?answer <http://www.w3.org/1999/02/22-rdf-syntax-ns#type> <http://ekaw#Camera_Ready_Paper>. 
0.56 <-> ?answer <http://ekaw#hasUpdatedVersion> ?y. ?y a <http://ekaw#Camera_Ready_Paper>. 

Unary query : ?answer a <http://conference#Committee>.
Number of matched answers :0
Number of correspondences found: 0

Binary query : ?answer0 <http://conference#has_important_dates> ?answer1.
Number of matched answers :10
Number of correspondences found: 0

Unary query : ?answer <http://conference#was_a_member_of> <http://conference-instances#sc69622803>.
Number of matched answers :10
Number of correspondences found: 3
0.5333333333333333 <-> ?answer <http://www.w3.org/1999/02/22-rdf-syntax-ns#type> <http://ekaw#SC_Member>. 
1.25 <-> ?answer <http://ekaw#organises> <http://ekaw-instances#conference69622803>. 
1.25 <-> <http://ekaw-instances#conference69622803> <http://ekaw#organisedBy> ?answer. 

Binary query : ?answer0 <http://conference#was_an_organizing_committee_of> ?answer1.
Number of matched answers :5
Number of correspondences found: 0

Binary query : ?answer0 <http://conference#is_the_1th_part_of> ?answer1.
Number of matched answers :10
Number of correspondences found: 0

Unary query : ?answer a <http://conference#Poster>.
Number of matched answers :0
Number of correspondences found: 0

Unary query : ?answer a <http://conference#Contribution_1th-author>.
Number of matched answers :10
Number of correspondences found: 6
0.0 <-> <http://ekaw-instances#paper-6196295681322198> <http://ekaw#writtenBy> ?answer. 
0.0 <-> ?answer <http://www.w3.org/2000/01/rdf-schema#label> ?someObject. 
0.0 <-> ?answer <http://ekaw#authorOf> ?someObject. 
0.0 <-> <http://ekaw-instances#review-1431904447151114_-196548216> <http://ekaw#reviewWrittenBy> ?answer. 
0.0 <-> ?answer <http://ekaw#reviewerOfPaper> <http://ekaw-instances#paper-11761359571111114>. 
0.0 <-> ?answer <http://www.w3.org/1999/02/22-rdf-syntax-ns#type> <http://ekaw#Student>. 

Unary query : ?answer a <http://conference#Conference_proceedings>.
Number of matched answers :5
Number of correspondences found: 1
1.0 <-> ?answer <http://www.w3.org/1999/02/22-rdf-syntax-ns#type> <http://ekaw#Conference_Proceedings>. 

Unary query : ?answer a <http://conference#Conference_www>.
Number of matched answers :5
Number of correspondences found: 2
0.7142857142857143 <-> ?x <http://ekaw#eventOnList> ?answer. ?x a <http://ekaw#Conference>. 
0.7142857142857143 <-> ?answer <http://ekaw#listsEvent> ?y. ?y a <http://ekaw#Conference>. 

Unary query : ?answer <http://conference#was_a_member_of> <http://conference-instances#sc943277065>.
Number of matched answers :10
Number of correspondences found: 3
0.5333333333333333 <-> ?answer <http://www.w3.org/1999/02/22-rdf-syntax-ns#type> <http://ekaw#SC_Member>. 
1.1656600517687663 <-> ?answer <http://ekaw#organises> <http://ekaw-instances#conference943277065>. 
1.1656600517687663 <-> <http://ekaw-instances#conference943277065> <http://ekaw#organisedBy> ?answer. 

Binary query : ?answer0 <http://conference#is_part_of_conference_volumes> ?answer1.
Number of matched answers :10
Number of correspondences found: 2
0.5 <-> ?answer1 <http://ekaw#hasEvent> ?answer0.  
0.5 <-> ?answer0 <http://ekaw#partOf> ?answer1.  

Binary query : ?answer0 <http://conference#has_a_committee_chair> ?answer1.
Number of matched answers :10
Number of correspondences found: 0

Binary query : ?answer0 <http://conference#issues> ?answer1.
Number of matched answers :5
Number of correspondences found: 1
0.5 <-> ?answer0 <http://ekaw#publisherOf> ?answer1.  

Binary query : ?answer0 <http://conference#invites_co-reviewers> ?answer1.
Number of matched answers :10
Number of correspondences found: 3
0.5 <-> ?v1 <http://ekaw#reviewWrittenBy> ?answer0.  ?answer1 <http://ekaw#authorOf> ?v1.  
0.5 <-> ?answer0 <http://ekaw#authorOf> ?v1.  ?v1 <http://ekaw#reviewWrittenBy> ?answer1.  
0.5 <-> ?v1 <http://ekaw#reviewWrittenBy> ?answer0.  ?v1 <http://ekaw#reviewWrittenBy> ?answer1.  

Unary query : ?answer a <http://conference#Conference_applicant>.
Number of matched answers :10
Number of correspondences found: 5
0.6 <-> ?x <http://ekaw#hasReviewer> ?answer. ?x a <http://ekaw#Conference_Paper>. 
0.6 <-> ?x <http://ekaw#writtenBy> ?answer. ?x a <http://ekaw#Conference_Paper>. 
0.6 <-> ?answer <http://ekaw#authorOf> ?y. ?y a <http://ekaw#Conference_Paper>. 
0.6 <-> ?answer <http://ekaw#reviewerOfPaper> ?y. ?y a <http://ekaw#Conference_Paper>. 
0.7272727272727273 <-> ?answer <http://www.w3.org/1999/02/22-rdf-syntax-ns#type> <http://ekaw#Conference_Participant>. 

Binary query : ?answer0 <http://conference#is_a_starting_date> ?answer1.
Number of matched answers :0
Number of correspondences found: 0

Binary query : ?answer0 <http://conference#has_a_commtitee> ?answer1.
Number of matched answers :10
Number of correspondences found: 0

Binary query : ?answer0 <http://conference#is_an_ending_date> ?answer1.
Number of matched answers :0
Number of correspondences found: 0

Binary query : ?answer0 <http://conference#has_an_ISBN> ?answer1.
Number of matched answers :5
Number of correspondences found: 0

Binary query : ?answer0 <http://conference#contributes> ?answer1.
Number of matched answers :10
Number of correspondences found: 3
0.5 <-> ?answer1 <http://ekaw#writtenBy> ?answer0.  
0.5 <-> ?answer1 <http://ekaw#reviewWrittenBy> ?answer0.  
0.5 <-> ?answer0 <http://ekaw#authorOf> ?answer1.  

Binary query : ?answer0 <http://conference#has_a_URL> ?answer1.
Number of matched answers :5
Number of correspondences found: 0

Unary query : ?answer a <http://conference#Organizer>.
Number of matched answers :10
Number of correspondences found: 2
0.6363636363636365 <-> ?someSubject <http://ekaw#organisedBy> ?answer. 
0.7777777777777778 <-> ?answer <http://ekaw#organises> ?someObject. 

Unary query : ?answer <http://conference#was_a_member_of> <http://conference-instances#oc943277065>.
Number of matched answers :10
Number of correspondences found: 2
1.1979949874686717 <-> <http://ekaw-instances#conference943277065> <http://ekaw#organisedBy> ?answer. 
1.1979949874686717 <-> ?answer <http://ekaw#organises> <http://ekaw-instances#conference943277065>. 

Unary query : ?answer a <http://conference#Invited_speaker>.
Number of matched answers :10
Number of correspondences found: 2
0.866666666666667 <-> ?answer <http://ekaw#reviewerOfPaper> ?y. ?y a <http://ekaw#Accepted_Paper>. 
1.0 <-> ?answer <http://www.w3.org/1999/02/22-rdf-syntax-ns#type> <http://ekaw#Invited_Speaker>. 

Unary query : ?answer <http://conference#was_a_member_of> <http://conference-instances#oc69622803>.
Number of matched answers :10
Number of correspondences found: 2
1.288888888888889 <-> ?answer <http://ekaw#organises> <http://ekaw-instances#conference69622803>. 
1.288888888888889 <-> <http://ekaw-instances#conference69622803> <http://ekaw#organisedBy> ?answer. 

Unary query : ?answer a <http://conference#Submitted_contribution>.
Number of matched answers :10
Number of correspondences found: 2
0.5 <-> ?answer <http://ekaw#updatedVersionOf> ?y. ?y a <http://ekaw#Submitted_Paper>. 
0.5 <-> ?answer <http://www.w3.org/1999/02/22-rdf-syntax-ns#type> <http://ekaw#Submitted_Paper>. 

Binary query : ?answer0 <http://conference#has_a_steering_committee> ?answer1.
Number of matched answers :5
Number of correspondences found: 0

Binary query : ?answer0 <http://conference#invited_by> ?answer1.
Number of matched answers :10
Number of correspondences found: 3
0.5 <-> ?v1 <http://ekaw#reviewWrittenBy> ?answer0.  ?answer1 <http://ekaw#authorOf> ?v1.  
0.5 <-> ?answer0 <http://ekaw#authorOf> ?v1.  ?v1 <http://ekaw#reviewWrittenBy> ?answer1.  
0.5 <-> ?v1 <http://ekaw#reviewWrittenBy> ?answer0.  ?v1 <http://ekaw#reviewWrittenBy> ?answer1.  

Unary query : ?answer a <http://conference#Conference_part>.
Number of matched answers :10
Number of correspondences found: 6
0.6666666666666667 <-> ?answer <http://ekaw#partOfEvent> ?y. ?y a <http://ekaw#Conference>. 
0.6666666666666667 <-> ?answer <http://ekaw#partOf> ?y. ?y a <http://ekaw#Conference>. 
0.6666666666666667 <-> ?x <http://ekaw#hasPart> ?answer. ?x a <http://ekaw#Conference>. 
0.6666666666666669 <-> ?x <http://ekaw#hasEvent> ?answer. ?x a <http://ekaw#Conference>. 
0.6818181818181819 <-> ?answer <http://ekaw#organisedBy> ?y. ?y a <http://ekaw#Conference_Participant>. 
0.6818181818181819 <-> ?x <http://ekaw#organises> ?answer. ?x a <http://ekaw#Conference_Participant>. 

Binary query : ?answer0 <http://conference#has_contributions> ?answer1.
Number of matched answers :10
Number of correspondences found: 19
0.5 <-> ?v1 <http://ekaw#partOf> ?answer0.  ?v2 <http://ekaw#organises> ?v1.  ?answer1 <http://ekaw#hasReviewer> ?v2.  
0.5 <-> ?answer0 <http://ekaw#organisedBy> ?v1.  ?v1 <http://ekaw#authorOf> ?answer1.  
0.5 <-> ?v1 <http://ekaw#partOf> ?answer0.  ?v2 <http://ekaw#organises> ?v1.  ?v2 <http://ekaw#reviewerOfPaper> ?answer1.  
0.5 <-> ?v1 <http://ekaw#organises> ?answer0.  ?answer1 <http://ekaw#hasReviewer> ?v1.  
0.5 <-> ?v1 <http://ekaw#organises> ?answer0.  ?v1 <http://ekaw#reviewerOfPaper> ?answer1.  
0.5 <-> ?answer0 <http://ekaw#hasEvent> ?v1.  ?v2 <http://ekaw#topicCoveredBy> ?v1.  ?v2 <http://ekaw#topicCoveredBy> ?answer1.  
0.5 <-> ?v1 <http://ekaw#partOf> ?answer0.  ?v1 <http://ekaw#coversTopic> ?v2.  ?v2 <http://ekaw#topicCoveredBy> ?answer1.  
0.5 <-> ?v1 <http://ekaw#partOf> ?answer0.  ?v2 <http://ekaw#topicCoveredBy> ?v1.  ?v2 <http://ekaw#topicCoveredBy> ?answer1.  
0.5 <-> ?answer0 <http://ekaw#hasEvent> ?v1.  ?v1 <http://ekaw#coversTopic> ?v2.  ?v2 <http://ekaw#topicCoveredBy> ?answer1.  
0.5 <-> ?answer0 <http://ekaw#hasEvent> ?v1.  ?v2 <http://ekaw#topicCoveredBy> ?v1.  ?answer1 <http://ekaw#coversTopic> ?v2.  
0.5 <-> ?v1 <http://ekaw#organises> ?answer0.  ?v1 <http://ekaw#authorOf> ?answer1.  
0.5 <-> ?answer0 <http://ekaw#organisedBy> ?v1.  ?v1 <http://ekaw#reviewerOfPaper> ?answer1.  
0.5 <-> ?answer0 <http://ekaw#hasEvent> ?v1.  ?v1 <http://ekaw#presentationOfPaper> ?answer1.  
0.5 <-> ?answer0 <http://ekaw#hasEvent> ?v1.  ?v1 <http://ekaw#organisedBy> ?v2.  ?v2 <http://ekaw#reviewerOfPaper> ?answer1.  
0.5 <-> ?v1 <http://ekaw#partOf> ?answer0.  ?v1 <http://ekaw#presentationOfPaper> ?answer1.  
0.5 <-> ?v1 <http://ekaw#partOf> ?answer0.  ?v1 <http://ekaw#organisedBy> ?v2.  ?v2 <http://ekaw#reviewerOfPaper> ?answer1.  
0.5 <-> ?v1 <http://ekaw#organises> ?answer0.  ?answer1 <http://ekaw#writtenBy> ?v1.  
0.5 <-> ?v1 <http://ekaw#partOf> ?answer0.  ?answer1 <http://ekaw#paperPresentedAs> ?v1.  
0.5 <-> ?v1 <http://ekaw#partOf> ?answer0.  ?v2 <http://ekaw#topicCoveredBy> ?v1.  ?answer1 <http://ekaw#coversTopic> ?v2.  

Unary query : ?answer <http://conference#is_submitted_at> <http://conference-instances#conference-104081973>.
Number of matched answers :10
Number of correspondences found: 3
0.5333333333333333 <-> ?answer <http://www.w3.org/1999/02/22-rdf-syntax-ns#type> <http://ekaw#Submitted_Paper>. 
1.465986394557823 <-> <http://ekaw-instances#proceedings-104081973> <http://ekaw#volumeContainsPaper> ?answer. 
1.465986394557823 <-> ?answer <http://ekaw#paperInVolume> <http://ekaw-instances#proceedings-104081973>. 

Unary query : ?answer a <http://conference#Conference_volume>.
Number of matched answers :5
Number of correspondences found: 4
0.653781512605042 <-> ?answer <http://ekaw#hasEvent> ?y. ?y a <http://ekaw#Conference_Banquet>. 
0.6624649859943978 <-> ?x <http://ekaw#partOf> ?answer. ?x a <http://ekaw#Conference_Trip>. 
0.6624649859943978 <-> ?answer <http://ekaw#hasPart> ?y. ?y a <http://ekaw#Conference_Trip>. 
0.6624649859943978 <-> ?x <http://ekaw#partOfEvent> ?answer. ?x a <http://ekaw#Conference_Trip>. 
Matching process ended
