===============================================================================
creating directory: conference-edas
Running with 10 support instances - 0.1 similarity.
Number of CQAs: 73

Unary query : ?answer a <http://conference#Contribution_1th-author>.
Number of matched answers :10
Number of correspondences found: 2
0.5590153452685422 <-> ?someSubject <http://edas#hasMember> ?answer. 
creating directory: paper_1st_author

Unary query : ?answer <http://www.w3.org/1999/02/22-rdf-syntax-ns#type> <http://conference#Publisher> .
Number of matched answers :0
Number of correspondences found: 0

Unary query : ?answer <http://www.w3.org/1999/02/22-rdf-syntax-ns#type> <http://conference#Rejected_contribution> .
Number of matched answers :10
Number of correspondences found: 5
0.5856514028804293 <-> ?answer <http://edas#relatesTo> ?someObject. 
0.6285714285714287 <-> ?someSubject <http://edas#isReviewing> ?answer. 
0.6289682539682541 <-> ?answer <http://edas#isReviewedBy> ?someObject. 
0.6666666666666669 <-> ?someSubject <http://edas#hasRelatedPaper> ?answer. 
0.6666666666666669 <-> ?answer <http://edas#isWrittenBy> ?someObject. 
creating directory: rejected_paper

Binary query : ?answer0 <http://conference#has_the_last_name> ?answer1 .
Number of matched answers :10
Number of correspondences found: 1
1.1470588235294115 <-> ?answer0 <http://edas#hasLastName> ?answer1.  
creating directory: person_last_name

Unary query : ?answer <http://www.w3.org/1999/02/22-rdf-syntax-ns#type> <http://conference#Track> .
Number of matched answers :0
Number of correspondences found: 0

Unary query : ?answer <http://www.w3.org/1999/02/22-rdf-syntax-ns#type> <http://conference#Conference_participant> .
Number of matched answers :10
Number of correspondences found: 3
0.5 <-> ?answer <http://edas#isReviewing> ?y. ?y a <http://edas#RejectedPaper>. 
0.9981110247776913 <-> ?someSubject <http://edas#hasMember> ?answer. 
1.0230920314253646 <-> ?answer <http://edas#isMemberOf> ?someObject. 
creating directory: participant

Unary query : ?answer <http://conference#was_a_member_of> ?o2 . ?o2 <http://www.w3.org/1999/02/22-rdf-syntax-ns#type> <http://conference#Organizing_committee> .
Number of matched answers :10
Number of correspondences found: 6
0.6357555172124841 <-> ?x <http://edas#isWrittenBy> ?answer. ?x a <http://edas#ActivePaper>. 
0.6704472361593288 <-> ?answer <http://edas#isReviewing> ?someObject. 
0.6749999999999998 <-> ?answer <http://edas#hasFirstName> ?someObject. 
0.7111111111111111 <-> ?answer <http://edas#hasLastName> ?someObject. 
0.9675990675990676 <-> ?answer <http://edas#isMemberOf> ?y. ?y a <http://edas#Conference>. 
1.0452602952602954 <-> ?x <http://edas#hasMember> ?answer. ?x a <http://edas#Conference>. 
creating directory: oc_member

Binary query : ?answer0 <http://www.w3.org/1999/02/22-rdf-syntax-ns#type> <http://conference#Conference_proceedings> .   ?answer0 <http://conference#has_a_name> ?answer1 .
Number of matched answers :0
Number of correspondences found: 0

Binary query : ?answer1 <http://conference#has_workshops> ?answer0 .
Number of matched answers :10
Number of correspondences found: 0

Binary query : ?answer0 <http://conference#was_a_member_of> ?answer1 . ?answer1 <http://www.w3.org/1999/02/22-rdf-syntax-ns#type> <http://conference#Program_committee> .
Number of matched answers :10
Number of correspondences found: 0

Binary query : ?answer0 <http://conference#reviews> ?answer1 .
Number of matched answers :10
Number of correspondences found: 5
1.6904761904761902 <-> ?answer0 a <http://edas#Review>.  ?v1 <http://edas#hasRelatedDocument> ?answer0.  ?v1 <http://edas#hasRelatedDocument> ?answer1.  
1.8571428571428565 <-> ?answer0 a <http://edas#Review>.  ?v1 <http://edas#hasRelatedDocument> ?answer0.  ?answer1 <http://edas#relatesTo> ?v1.  
1.8571428571428574 <-> ?answer0 a <http://edas#Review>.  ?answer0 <http://edas#relatesTo> ?v1.  ?v1 <http://edas#hasRelatedDocument> ?answer1.  
2.81926406926407 <-> ?answer0 a <http://edas#Review>.  ?v1 <http://edas#hasRelatedDocument> ?answer0.  ?v1 a <http://edas#Reviewer>.  ?v1 <http://edas#isReviewing> ?answer1.  
2.985930735930736 <-> ?answer0 a <http://edas#Review>.  ?answer0 <http://edas#relatesTo> ?v1.  ?v1 a <http://edas#Reviewer>.  ?v1 <http://edas#isReviewing> ?answer1.  
creating directory: review_of_paper

Binary query : ?answer0 <http://www.w3.org/1999/02/22-rdf-syntax-ns#type> <http://conference#Tutorial> .  ?answer0 <http://conference#has_a_track-workshop-tutorial_topic> ?answer1 .
Number of matched answers :10
Number of correspondences found: 0

Binary query : ?answer0 <http://conference#has_important_dates> ?o2 . ?o2 a <http://conference#Important_dates>. ?o2 <http://conference#is_a_date_of_acceptance_announcement> ?answer1.
Number of matched answers :5
Number of correspondences found: 0

Binary query : ?answer0 a <http://conference#Conference_participant>.      bind( if (exists {?answer0 a <http://conference#Early_paid_applicant>}, "true"^^<http://www.w3.org/2001/XMLSchema#boolean>,        if (exists {?answer0 a <http://conference#Late_paid_applicant>}, "false"^^<http://www.w3.org/2001/XMLSchema#boolean>,"")) as ?answer1)
Number of matched answers :10
Number of correspondences found: 0

Binary query : ?answer1 <http://conference#has_tutorials> ?answer0 .
Number of matched answers :10
Number of correspondences found: 0

Binary query : ?answer0 <http://conference#has_a_location> ?answer1 .
Number of matched answers :5
Number of correspondences found: 1
1.0714285714285714 <-> ?answer0 <http://edas#location> ?answer1.  
creating directory: conference_location

Unary query : ?answer a <http://conference#Conference_participant> .   ?answer a <http://conference#Late_paid_applicant> .
Number of matched answers :10
Number of correspondences found: 9
0.6316531854577472 <-> ?x <http://edas#relatesTo> ?answer. ?x a <http://edas#Document>. 
0.6690590111642744 <-> ?answer <http://edas#hasLastName> ?someObject. 
0.6732057416267944 <-> ?answer <http://edas#hasFirstName> ?someObject. 
0.7596652200462751 <-> ?x <http://edas#isReviewedBy> ?answer. ?x a <http://edas#AcceptedPaper>. 
0.7814569294399885 <-> ?answer <http://edas#hasRelatedDocument> ?y. ?y a <http://edas#Document>. 
0.9376629705577074 <-> ?answer <http://edas#hasRelatedPaper> ?y. ?y a <http://edas#RejectedPaper>. 
0.9555623930826928 <-> ?answer <http://edas#isReviewing> ?y. ?y a <http://edas#AcceptedPaper>. 
1.3706611495297198 <-> ?someSubject <http://edas#hasMember> ?answer. 
1.3765674331822826 <-> ?answer <http://edas#isMemberOf> ?someObject. 
creating directory: late_registered_participant

Unary query : ?answer <http://www.w3.org/1999/02/22-rdf-syntax-ns#type> <http://conference#Contribution_co-author> .
Number of matched answers :10
Number of correspondences found: 3
0.4078624078624078 <-> ?someSubject <http://edas#isWrittenBy> ?answer. 
0.5027389277389278 <-> ?answer <http://edas#isMemberOf> ?someObject. 
0.6045454545454546 <-> <http://edas-instances#conference-1409861683> <http://edas#hasMember> ?answer. 
creating directory: paper_co_author

Binary query : ?answer1 a <http://conference#Abstract>. ?answer0 <http://conference#contributes> ?answer1 . ?o2 <http://conference#has_an_abstract> ?answer1. ?o2 a <http://conference#Invited_talk>.
Number of matched answers :10
Number of correspondences found: 0

Binary query : ?answer0 a <http://conference#Invited_speaker>. ?answer0 <http://conference#contributes> ?answer1 . ?answer1 a <http://conference#Invited_talk>.
Number of matched answers :10
Number of correspondences found: 0

Binary query : ?answer0 <http://conference#contributes> ?o2 .  ?o2 <http://conference#reviews> ?answer1 .  ?answer0 <http://conference#was_a_member_of> ?o3 . ?o3 <http://www.w3.org/1999/02/22-rdf-syntax-ns#type> <http://conference#Program_committee> .
Number of matched answers :10
Number of correspondences found: 8
3.18373440285205 <-> ?answer0 a <http://edas#Reviewer>.  ?answer1 <http://edas#isReviewedBy> ?answer0.  ?answer1 a <http://edas#Document>.  
3.3468360071301246 <-> ?answer0 a <http://edas#Reviewer>.  ?answer0 <http://edas#isReviewing> ?answer1.  ?answer1 a <http://edas#Document>.  
3.3713903743315505 <-> ?answer0 a <http://edas#Reviewer>.  ?answer1 <http://edas#isReviewedBy> ?answer0.  ?answer1 a <http://edas#RatedPapers>.  
3.5344919786096254 <-> ?answer0 a <http://edas#Reviewer>.  ?answer0 <http://edas#isReviewing> ?answer1.  ?answer1 a <http://edas#RatedPapers>.  
4.627109328579916 <-> ?answer0 a <http://edas#Reviewer>.  ?answer0 <http://edas#isMemberOf> ?v1.  ?v1 a <http://edas#Conference>.  ?v1 <http://edas#hasRelatedDocument> ?answer1.  ?answer1 a <http://edas#Document>.  
4.712195484254307 <-> ?answer0 a <http://edas#Reviewer>.  ?v1 <http://edas#hasMember> ?answer0.  ?v1 a <http://edas#Conference>.  ?v1 <http://edas#hasRelatedDocument> ?answer1.  ?answer1 a <http://edas#Document>.  
4.907620320855615 <-> ?answer0 a <http://edas#Reviewer>.  ?answer0 <http://edas#isMemberOf> ?v1.  ?v1 a <http://edas#Conference>.  ?answer1 <http://edas#relatesTo> ?v1.  ?answer1 a <http://edas#Document>.  
4.992706476530006 <-> ?answer0 a <http://edas#Reviewer>.  ?v1 <http://edas#hasMember> ?answer0.  ?v1 a <http://edas#Conference>.  ?answer1 <http://edas#relatesTo> ?v1.  ?answer1 a <http://edas#Document>.  
creating directory: is_assigned_reviewer_of

Unary query : ?answer <http://www.w3.org/1999/02/22-rdf-syntax-ns#type> <http://conference#Program_committee> .
Number of matched answers :0
Number of correspondences found: 0

Binary query : ?answer0 <http://conference#gives_presentations> ?answer1. ?answer1 a <http://conference#Presentation>.
Number of matched answers :10
Number of correspondences found: 3
3.60124576146248 <-> ?answer0 a <http://edas#Presenter>.  ?v1 <http://edas#isWrittenBy> ?answer0.  ?v1 <http://edas#relatedToEvent> ?answer1.  ?answer1 a <http://edas#PaperPresentation>.  
3.695982603567743 <-> ?answer0 a <http://edas#Presenter>.  ?answer0 <http://edas#hasRelatedPaper> ?v1.  ?v1 <http://edas#relatedToEvent> ?answer1.  ?answer1 a <http://edas#PaperPresentation>.  
3.765823873409013 <-> ?answer0 a <http://edas#Presenter>.  ?v1 <http://edas#relatesTo> ?answer0.  ?answer1 <http://edas#hasRelatedDocument> ?v1.  ?answer1 a <http://edas#PaperPresentation>.  
creating directory: presenter_of_paper_presentation

Unary query : ?answer <http://www.w3.org/1999/02/22-rdf-syntax-ns#type> <http://conference#Reviewer> .  ?answer <http://conference#invited_by> ?o2 .
Number of matched answers :10
Number of correspondences found: 9
0.8157219973009446 <-> ?answer <http://edas#isMemberOf> <http://edas-instances#conference943277065>. 
0.949055330634278 <-> <http://edas-instances#conference943277065> <http://edas#hasMember> ?answer. 
1.0858823243466642 <-> ?answer <http://edas#hasRelatedPaper> ?y. ?y a <http://edas#ActivePaper>. 
1.1967890235085739 <-> ?x <http://edas#isWrittenBy> ?answer. ?x a <http://edas#ActivePaper>. 
1.3 <-> ?answer <http://www.w3.org/1999/02/22-rdf-syntax-ns#type> <http://edas#Reviewer>. 
1.3797202797202797 <-> ?answer <http://edas#isReviewing> ?y. ?y a <http://edas#RejectedPaper>. 
1.384343434343434 <-> ?answer <http://edas#hasRelatedDocument> ?y. ?y a <http://edas#SlideSet>. 
1.5083333333333333 <-> ?x <http://edas#relatesTo> ?answer. ?x a <http://edas#Review>. 
1.6474358974358974 <-> ?x <http://edas#isReviewedBy> ?answer. ?x a <http://edas#RejectedPaper>. 
creating directory: external_reviewer

Binary query : ?answer0 <http://conference#has_important_dates> ?o2 . ?o2 <http://conference#is_a_date_of_camera_ready_paper_submission> ?answer1 .
Number of matched answers :5
Number of correspondences found: 1
1.2489878542510122 <-> ?answer0 <http://edas#paperDueOn> ?answer1.  
creating directory: conference_camera_date

Binary query : ?answer0 <http://conference#contributes> ?answer1 .   ?answer1 <http://www.w3.org/1999/02/22-rdf-syntax-ns#type> <http://conference#Review> .    ?answer0 <http://conference#was_a_member_of> ?o3 . ?o3 <http://www.w3.org/1999/02/22-rdf-syntax-ns#type> <http://conference#Program_committee> .
Number of matched answers :10
Number of correspondences found: 2
3.911021984551396 <-> ?answer0 a <http://edas#Reviewer>.  ?answer0 <http://edas#hasRelatedDocument> ?answer1.  ?answer1 a <http://edas#Review>.  
4.1915329768270935 <-> ?answer0 a <http://edas#Reviewer>.  ?answer1 <http://edas#relatesTo> ?answer0.  ?answer1 a <http://edas#Review>.  
creating directory: assigned_reviewer_author_of_review

Binary query : ?answer1 <http://conference#has_tracks> ?answer0 .
Number of matched answers :10
Number of correspondences found: 0

Binary query : ?answer0 <http://conference#was_a_track-workshop_chair_of> ?answer1 . ?answer1 <http://www.w3.org/1999/02/22-rdf-syntax-ns#type> <http://conference#Workshop> .
Number of matched answers :10
Number of correspondences found: 0

Unary query : ?answer <http://www.w3.org/1999/02/22-rdf-syntax-ns#type> <http://conference#Conference_volume> .
Number of matched answers :5
Number of correspondences found: 4
0.6050420168067228 <-> ?answer <http://edas#endDate> ?someObject. 
0.6588235294117648 <-> ?answer <http://edas#hasMember> ?y. ?y a <http://edas#ConferenceChair>. 
0.6882352941176472 <-> ?someSubject <http://edas#isMemberOf> ?answer. 
0.9476827094474154 <-> ?answer <http://edas#hasName> "International Symposium on Languages in Biology and Medicine (LBM)". 
creating directory: conference

Binary query : ?answer0 <http://conference#has_the_first_name> ?o1 .  ?answer0 <http://conference#has_the_last_name> ?o2 .   BIND( concat(STR(?o1)," ", STR(?o2)) as ?answer1)
Number of matched answers :10
Number of correspondences found: 0

Unary query : ?answer <http://www.w3.org/1999/02/22-rdf-syntax-ns#type> <http://conference#Person> .
Number of matched answers :10
Number of correspondences found: 4
0.6785714285714286 <-> ?answer <http://edas#hasFirstName> "Hermann". 
0.6818181818181818 <-> ?answer <http://edas#hasLastName> ?someObject. 
0.683468286099865 <-> ?answer <http://edas#isMemberOf> <http://edas-instances#conference943277065>. 
1.0 <-> ?answer <http://www.w3.org/1999/02/22-rdf-syntax-ns#type> <http://edas#Person>. 
creating directory: person

Unary query : ?answer <http://www.w3.org/1999/02/22-rdf-syntax-ns#type> <http://conference#Conference_proceedings> .
Number of matched answers :0
Number of correspondences found: 0

Binary query : ?answer0 <http://conference#has_a_publisher> ?answer1 .
Number of matched answers :0
Number of correspondences found: 0

Binary query : ?answer0 <http://conference#has_important_dates> ?o2 .   ?answer0 a <http://conference#Conference_volume> . ?o2 <http://conference#is_a_starting_date> ?answer1 .
Number of matched answers :5
Number of correspondences found: 1
3.351496388028896 <-> ?answer0 a <http://edas#Conference>.  ?answer0 <http://edas#startDate> ?answer1.  
creating directory: conference_start_date

Binary query : ?answer0 <http://conference#invites_co-reviewers> ?answer1 .
Number of matched answers :10
Number of correspondences found: 7
0.6999999999999998 <-> ?answer0 <http://edas#hasRelatedDocument> ?v1.  ?v1 <http://edas#relatesTo> ?answer1.  
0.6999999999999998 <-> ?v1 <http://edas#relatesTo> ?answer0.  ?answer1 <http://edas#hasRelatedDocument> ?v1.  
0.8999999999999999 <-> ?v1 <http://edas#relatesTo> ?answer0.  ?v1 <http://edas#relatesTo> ?answer1.  
0.8999999999999999 <-> ?v1 <http://edas#hasMember> ?answer0.  ?v1 <http://edas#hasMember> ?answer1.  
0.9000000000000001 <-> ?answer0 <http://edas#isMemberOf> ?v1.  ?v1 <http://edas#hasMember> ?answer1.  
0.9000000000000001 <-> ?v1 <http://edas#hasMember> ?answer0.  ?answer1 <http://edas#isMemberOf> ?v1.  
1.3 <-> ?v1 <http://edas#isReviewedBy> ?answer0.  ?v1 <http://edas#isReviewedBy> ?answer1.  
creating directory: invite_reviewer

Unary query : ?answer <http://www.w3.org/1999/02/22-rdf-syntax-ns#type> <http://conference#Tutorial> .
Number of matched answers :0
Number of correspondences found: 0

Unary query : ?answer a <http://conference#Conference_participant> .   ?answer a <http://conference#Early_paid_applicant> .
Number of matched answers :10
Number of correspondences found: 8
0.6107747154259431 <-> ?x <http://edas#isReviewedBy> ?answer. ?x a <http://edas#AcceptedPaper>. 
0.653030303030303 <-> ?answer <http://edas#hasLastName> ?someObject. 
0.6761363636363635 <-> ?answer <http://edas#hasFirstName> ?someObject. 
0.7609780348140391 <-> ?answer <http://edas#hasRelatedDocument> ?y. ?y a <http://edas#Document>. 
0.8531699031268365 <-> ?answer <http://edas#hasRelatedPaper> ?y. ?y a <http://edas#AcceptedPaper>. 
0.8994443735208049 <-> ?answer <http://edas#isReviewing> ?y. ?y a <http://edas#RatedPapers>. 
1.340079718756189 <-> ?someSubject <http://edas#hasMember> ?answer. 
1.34843137254902 <-> ?answer <http://edas#isMemberOf> ?someObject. 
creating directory: early_registered_participant

Binary query : ?answer0 <http://www.w3.org/1999/02/22-rdf-syntax-ns#type> <http://conference#Conference> . ?answer0 <http://conference#has_a_name> ?answer1 .
Number of matched answers :5
Number of correspondences found: 1
2.9 <-> ?answer0 a <http://edas#Conference>.  ?answer0 <http://edas#hasName> ?answer1.  
creating directory: conference_name

Unary query : ?answer <http://www.w3.org/1999/02/22-rdf-syntax-ns#type> <http://conference#Abstract> .   ?answer <http://conference#is_the_1th_part_of> ?o2. ?o2 <http://www.w3.org/1999/02/22-rdf-syntax-ns#type> <http://conference#Written_contribution> .
Number of matched answers :0
Number of correspondences found: 0

Unary query : ?answer <http://conference#was_a_member_of> ?o2 . ?o2 <http://www.w3.org/1999/02/22-rdf-syntax-ns#type> <http://conference#Program_committee> .
Number of matched answers :10
Number of correspondences found: 10
0.6 <-> ?someSubject <http://edas#isReviewedBy> ?answer. 
0.6274956900634651 <-> ?answer <http://edas#hasRelatedPaper> ?y. ?y a <http://edas#Paper>. 
0.64640522875817 <-> ?answer <http://edas#hasRelatedDocument> ?y. ?y a <http://edas#Document>. 
0.6863214819097172 <-> ?x <http://edas#isWrittenBy> ?answer. ?x a <http://edas#Paper>. 
0.6941176470588236 <-> ?answer <http://edas#hasFirstName> "Walter". 
0.6946921831541368 <-> ?answer <http://edas#isReviewing> ?y. ?y a <http://edas#Paper>. 
0.7058823529411765 <-> ?answer <http://edas#hasLastName> ?someObject. 
0.7450980392156863 <-> ?x <http://edas#relatesTo> ?answer. ?x a <http://edas#Document>. 
0.9731372549019609 <-> ?someSubject <http://edas#hasMember> ?answer. 
1.0155228758169934 <-> ?answer <http://edas#isMemberOf> ?y. ?y a <http://edas#Conference>. 
creating directory: pc_member

Unary query : ?answer <http://www.w3.org/1999/02/22-rdf-syntax-ns#type> <http://conference#Workshop> .
Number of matched answers :10
Number of correspondences found: 2
0.6722222222222222 <-> ?x <http://edas#forEvent> ?answer. ?x a <http://edas#CallForManuscripts>. 
1.0 <-> ?answer <http://www.w3.org/1999/02/22-rdf-syntax-ns#type> <http://edas#Workshop>. 
creating directory: workshop

Binary query : ?answer0 <http://conference#has_important_dates> ?o2 . ?o2 <http://conference#is_a_full_paper_submission_date> ?answer1 .
Number of matched answers :5
Number of correspondences found: 1
1.2677110665226117 <-> ?answer0 <http://edas#manuscriptDueOn> ?answer1.  
creating directory: conference_paper_date

Unary query : ?answer <http://www.w3.org/1999/02/22-rdf-syntax-ns#type> <http://conference#Reviewer> . ?answer <http://conference#was_a_member_of> ?o2 . ?o2 <http://www.w3.org/1999/02/22-rdf-syntax-ns#type> <http://conference#Program_committee> .
Number of matched answers :10
Number of correspondences found: 12
0.7375 <-> ?answer <http://edas#hasFirstName> ?someObject. 
0.8255628177196805 <-> ?answer <http://edas#hasLastName> ?someObject. 
0.8797385620915033 <-> ?answer <http://www.w3.org/1999/02/22-rdf-syntax-ns#type> <http://edas#Presenter>. 
1.1575742838989755 <-> ?x <http://edas#isWrittenBy> ?answer. ?x a <http://edas#Paper>. 
1.219126693762535 <-> ?answer <http://edas#hasRelatedPaper> ?y. ?y a <http://edas#RatedPapers>. 
1.3727124183006534 <-> ?answer <http://edas#isMemberOf> ?y. ?y a <http://edas#Conference>. 
1.3764705882352941 <-> ?answer <http://www.w3.org/1999/02/22-rdf-syntax-ns#type> <http://edas#Reviewer>. 
1.460904627855539 <-> ?x <http://edas#isReviewedBy> ?answer. ?x a <http://edas#Paper>. 
1.4678780559215343 <-> ?answer <http://edas#hasRelatedDocument> ?y. ?y a <http://edas#Review>. 
1.4957516339869281 <-> ?someSubject <http://edas#hasMember> ?answer. 
1.5413408509527304 <-> ?answer <http://edas#isReviewing> ?y. ?y a <http://edas#Paper>. 
1.7626963578115808 <-> ?x <http://edas#relatesTo> ?answer. ?x a <http://edas#SlideSet>. 
creating directory: assigned_reviewer

Unary query : ?answer <http://www.w3.org/1999/02/22-rdf-syntax-ns#type> <http://conference#Accepted_contribution> .
Number of matched answers :10
Number of correspondences found: 7
0.6190476190476191 <-> ?answer <http://edas#relatedToEvent> ?y. ?y a <http://edas#PaperPresentation>. 
0.6190476190476191 <-> ?answer <http://edas#hasTopic> <http://edas-instances#topic372970145>. 
0.6550264550264552 <-> ?answer <http://edas#isWrittenBy> ?someObject. 
0.6630687830687831 <-> ?someSubject <http://edas#hasRelatedPaper> ?answer. 
0.6666666666666666 <-> <http://edas-instances#topic372970145> <http://edas#isTopicOf> ?answer. 
0.6780045351473925 <-> ?someSubject <http://edas#isReviewing> ?answer. 
0.6829931972789114 <-> ?answer <http://edas#isReviewedBy> ?someObject. 
creating directory: accepted_paper

Unary query : ?answer <http://www.w3.org/1999/02/22-rdf-syntax-ns#type> <http://conference#Conference_www> .
Number of matched answers :0
Number of correspondences found: 0

Unary query : ?answer <http://conference#was_a_track-workshop_chair_of> ?o2 . ?o2 <http://www.w3.org/1999/02/22-rdf-syntax-ns#type> <http://conference#Workshop> .
Number of matched answers :10
Number of correspondences found: 4
0.47844827586206895 <-> ?answer <http://www.w3.org/1999/02/22-rdf-syntax-ns#type> <http://edas#Person>. 
0.551107167004733 <-> ?answer <http://edas#isMemberOf> ?someObject. 
0.560344827586207 <-> ?answer <http://edas#hasFirstName> "Ebrahim". 
0.6691385841170323 <-> ?answer <http://edas#hasRelatedPaper> ?y. ?y a <http://edas#PublishedPaper>. 
creating directory: workshop_chair

Unary query : ?answer <http://conference#is_the_1th_part_of> ?o2 . ?o2 <http://www.w3.org/1999/02/22-rdf-syntax-ns#type> <http://conference#Invited_talk> .
Number of matched answers :0
Number of correspondences found: 0

Unary query : ?answer <http://www.w3.org/1999/02/22-rdf-syntax-ns#type> <http://conference#Invited_speaker> .
Number of matched answers :10
Number of correspondences found: 5
0.33333333333333326 <-> ?answer <http://edas#hasFirstName> ?someObject. 
0.6 <-> ?x <http://edas#isWrittenBy> ?answer. ?x a <http://edas#RejectedPaper>. 
0.6000000000000003 <-> ?answer <http://edas#isReviewing> ?y. ?y a <http://edas#RatedPapers>. 
0.6000000000000004 <-> ?x <http://edas#isReviewedBy> ?answer. ?x a <http://edas#RatedPapers>. 
0.6450182820763457 <-> ?answer <http://edas#hasRelatedPaper> ?y. ?y a <http://edas#RatedPapers>. 
creating directory: invited_speaker

Binary query : ?answer0 <http://www.w3.org/1999/02/22-rdf-syntax-ns#type> <http://conference#Regular_author> . ?answer0 <http://conference#contributes> ?answer1 . ?answer1 <http://www.w3.org/1999/02/22-rdf-syntax-ns#type> <http://conference#Written_contribution> .   minus{  ?answer1 <http://www.w3.org/1999/02/22-rdf-syntax-ns#type> <http://conference#Abstract> .   }
Number of matched answers :10
Number of correspondences found: 8
1.8619047619047617 <-> ?answer0 a <http://edas#Author>.  ?answer0 <http://edas#hasRelatedPaper> ?answer1.  
1.9922077922077923 <-> ?answer0 a <http://edas#Author>.  ?answer1 <http://edas#isWrittenBy> ?answer0.  
2.4615800865800868 <-> ?answer0 a <http://edas#Author>.  ?answer0 <http://edas#hasRelatedPaper> ?answer1.  ?answer1 a <http://edas#Document>.  
2.5683982683982687 <-> ?answer0 a <http://edas#Author>.  ?answer0 <http://edas#hasRelatedPaper> ?answer1.  ?answer1 a <http://edas#RatedPapers>.  
2.583882783882783 <-> ?answer0 a <http://edas#Author>.  ?answer0 <http://edas#hasRelatedPaper> ?answer1.  ?answer1 a <http://edas#RejectedPaper>.  
2.5918831168831167 <-> ?answer0 a <http://edas#Author>.  ?answer1 <http://edas#isWrittenBy> ?answer0.  ?answer1 a <http://edas#Document>.  
2.6987012987012986 <-> ?answer0 a <http://edas#Author>.  ?answer1 <http://edas#isWrittenBy> ?answer0.  ?answer1 a <http://edas#RatedPapers>.  
2.7141858141858144 <-> ?answer0 a <http://edas#Author>.  ?answer1 <http://edas#isWrittenBy> ?answer0.  ?answer1 a <http://edas#RejectedPaper>.  
creating directory: is_author_of_paper

Binary query : ?answer0 <http://conference#has_important_dates> ?o2 . ?o2 <http://conference#is_an_ending_date> ?answer1 .
Number of matched answers :5
Number of correspondences found: 1
1.603494029190624 <-> ?answer0 <http://edas#endDate> ?answer1.  
creating directory: conference_end_date

Unary query : ?answer <http://www.w3.org/1999/02/22-rdf-syntax-ns#type> <http://conference#Topic> .
Number of matched answers :10
Number of correspondences found: 3
0.7555555555555555 <-> ?answer <http://edas#isTopicOf> ?y. ?y a <http://edas#Paper>. 
0.825 <-> ?x <http://edas#hasTopic> ?answer. ?x a <http://edas#Paper>. 
1.0 <-> ?answer <http://www.w3.org/1999/02/22-rdf-syntax-ns#type> <http://edas#Topic>. 
creating directory: topic

Binary query : ?answer0 a <http://conference#Abstract>. ?answer1 <http://conference#has_an_abstract> ?answer0 . ?answer1 a <http://conference#Invited_talk>.
Number of matched answers :0
Number of correspondences found: 0

Unary query : ?o2 a <http://conference#Conference_www>. ?o2 <http://conference#has_a_URL> ?answer .
Number of matched answers :0
Number of correspondences found: 0

Unary query : ?answer <http://conference#was_a_member_of> ?o2 . ?o2 <http://www.w3.org/1999/02/22-rdf-syntax-ns#type> <http://conference#Steering_committee> .
Number of matched answers :10
Number of correspondences found: 9
0.611111111111111 <-> ?answer <http://edas#hasRelatedPaper> ?someObject. 
0.6142857142857142 <-> ?x <http://edas#relatesTo> ?answer. ?x a <http://edas#Document>. 
0.6173245614035087 <-> ?x <http://edas#isWrittenBy> ?answer. ?x a <http://edas#Paper>. 
0.6222222222222222 <-> ?x <http://edas#isReviewedBy> ?answer. ?x a <http://edas#Paper>. 
0.6444444444444444 <-> ?answer <http://edas#hasRelatedDocument> ?y. ?y a <http://edas#SlideSet>. 
0.6777777777777777 <-> ?answer <http://edas#isReviewing> ?y. ?y a <http://edas#Paper>. 
0.6809523809523811 <-> ?answer <http://edas#hasLastName> ?someObject. 
1.0486650260644068 <-> ?someSubject <http://edas#hasMember> ?answer. 
1.1721606555352688 <-> ?answer <http://edas#isMemberOf> ?y. ?y a <http://edas#Conference>. 
creating directory: sc_member

Binary query : ?answer1 <http://conference#has_authors> ?answer0 . ?answer1 <http://www.w3.org/1999/02/22-rdf-syntax-ns#type> <http://conference#Review> .
Number of matched answers :10
Number of correspondences found: 2
2.694444444444444 <-> ?answer0 a <http://edas#Reviewer>.  ?answer0 <http://edas#hasRelatedDocument> ?answer1.  ?answer1 a <http://edas#Review>.  
2.765151515151515 <-> ?answer0 a <http://edas#Reviewer>.  ?answer1 <http://edas#relatesTo> ?answer0.  ?answer1 a <http://edas#Review>.  
creating directory: all_reviewer_author_of_review

Unary query : ?answer <http://www.w3.org/1999/02/22-rdf-syntax-ns#type> <http://conference#Reviewer> .
Number of matched answers :10
Number of correspondences found: 8
0.6682534535533033 <-> ?answer <http://edas#hasRelatedPaper> ?y. ?y a <http://edas#RatedPapers>. 
0.7104588394062078 <-> ?answer <http://edas#isMemberOf> <http://edas-instances#conference943277065>. 
0.8437921727395412 <-> <http://edas-instances#conference943277065> <http://edas#hasMember> ?answer. 
0.8873665904439526 <-> ?answer <http://edas#isReviewing> ?y. ?y a <http://edas#RejectedPaper>. 
0.9257638171439442 <-> ?x <http://edas#isReviewedBy> ?answer. ?x a <http://edas#RejectedPaper>. 
0.9722222222222222 <-> ?answer <http://edas#hasRelatedDocument> ?y. ?y a <http://edas#Review>. 
1.0 <-> ?answer <http://www.w3.org/1999/02/22-rdf-syntax-ns#type> <http://edas#Reviewer>. 
1.0833333333333335 <-> ?x <http://edas#relatesTo> ?answer. ?x a <http://edas#Review>. 
creating directory: reviewers_all

Unary query : ?answer <http://www.w3.org/1999/02/22-rdf-syntax-ns#type> <http://conference#Review> .
Number of matched answers :10
Number of correspondences found: 3
0.9166666666666666 <-> ?x <http://edas#hasRelatedDocument> ?answer. ?x a <http://edas#Reviewer>. 
1.0 <-> ?answer <http://www.w3.org/1999/02/22-rdf-syntax-ns#type> <http://edas#Review>. 
1.0833333333333335 <-> ?answer <http://edas#relatesTo> ?y. ?y a <http://edas#Reviewer>. 
creating directory: review

Binary query : ?answer0 <http://conference#has_the_first_name> ?answer1 .
Number of matched answers :10
Number of correspondences found: 1
1.1666666666666665 <-> ?answer0 <http://edas#hasFirstName> ?answer1.  
creating directory: person_first_name

Binary query : ?answer0 <http://www.w3.org/1999/02/22-rdf-syntax-ns#type> <http://conference#Workshop> .  ?answer0 <http://conference#has_a_track-workshop-tutorial_topic> ?answer1 .
Number of matched answers :10
Number of correspondences found: 0

Unary query : ?answer a <http://conference#Invited_talk> .
Number of matched answers :0
Number of correspondences found: 0

Unary query : ?answer <http://www.w3.org/1999/02/22-rdf-syntax-ns#type> <http://conference#Regular_author> .
Number of matched answers :10
Number of correspondences found: 2
0.5747354497354497 <-> ?someSubject <http://edas#relatesTo> ?answer. 
creating directory: author

Binary query : ?answer0 a <http://conference#Written_contribution> . ?answer0 <http://conference#has_an_abstract> ?answer1 .
Number of matched answers :10
Number of correspondences found: 0

Binary query : ?answer0 a <http://conference#Presentation>. ?answer0 <http://conference#has_an_abstract> ?o2 . ?answer1 <http://conference#has_an_abstract> ?o2 . ?answer1 a <http://conference#Written_contribution> .
Number of matched answers :10
Number of correspondences found: 18
1.9878151260504207 <-> ?answer0 a <http://edas#PaperPresentation>.  ?answer0 <http://edas#relatedToPaper> ?answer1.  
2.2425770308123245 <-> ?answer0 a <http://edas#PaperPresentation>.  ?answer1 <http://edas#relatedToEvent> ?answer0.  
3.2425770308123245 <-> ?answer0 a <http://edas#PaperPresentation>.  ?v1 <http://edas#relatedToEvent> ?answer0.  ?v2 <http://edas#isTopicOf> ?v1.  ?v2 <http://edas#isTopicOf> ?answer1.  
3.242577030812325 <-> ?answer0 a <http://edas#PaperPresentation>.  ?v1 <http://edas#relatedToEvent> ?answer0.  ?v2 <http://edas#hasRelatedDocument> ?v1.  ?v2 <http://edas#hasRelatedDocument> ?answer1.  
3.525910364145658 <-> ?answer0 a <http://edas#PaperPresentation>.  ?v1 <http://edas#relatedToEvent> ?answer0.  ?v2 <http://edas#hasRelatedDocument> ?v1.  ?answer1 <http://edas#relatesTo> ?v2.  
3.525910364145658 <-> ?answer0 a <http://edas#PaperPresentation>.  ?v1 <http://edas#relatedToEvent> ?answer0.  ?v1 <http://edas#relatesTo> ?v2.  ?v2 <http://edas#hasRelatedDocument> ?answer1.  
3.7092436974789913 <-> ?answer0 a <http://edas#PaperPresentation>.  ?v1 <http://edas#relatedToEvent> ?answer0.  ?v2 <http://edas#hasRelatedPaper> ?v1.  ?v2 a <http://edas#Person>.  ?v2 <http://edas#hasRelatedPaper> ?answer1.  
3.892577030812325 <-> ?answer0 a <http://edas#PaperPresentation>.  ?v1 <http://edas#relatedToEvent> ?answer0.  ?v2 <http://edas#hasRelatedDocument> ?v1.  ?v2 <http://edas#hasRelatedDocument> ?answer1.  ?answer1 a <http://edas#RatedPapers>.  
3.892577030812325 <-> ?answer0 a <http://edas#PaperPresentation>.  ?v1 <http://edas#relatedToEvent> ?answer0.  ?v2 <http://edas#isTopicOf> ?v1.  ?v2 <http://edas#isTopicOf> ?answer1.  ?answer1 a <http://edas#RatedPapers>.  
3.9235294117647057 <-> ?answer0 a <http://edas#PaperPresentation>.  ?answer0 <http://edas#hasRelatedDocument> ?v1.  ?v1 a <http://edas#SlideSet>.  ?v1 <http://edas#relatesTo> ?v2.  ?v2 <http://edas#hasRelatedDocument> ?answer1.  
4.092577030812325 <-> ?answer0 a <http://edas#PaperPresentation>.  ?v1 <http://edas#relatedToEvent> ?answer0.  ?v2 <http://edas#hasRelatedPaper> ?v1.  ?v2 a <http://edas#Presenter>.  ?v2 <http://edas#hasRelatedPaper> ?answer1.  
4.159243697478991 <-> ?answer0 a <http://edas#PaperPresentation>.  ?v1 <http://edas#relatedToEvent> ?answer0.  ?v2 <http://edas#isReviewing> ?v1.  ?v2 a <http://edas#Person>.  ?v2 <http://edas#isReviewing> ?answer1.  ?answer1 a <http://edas#RatedPapers>.  
4.175910364145658 <-> ?answer0 a <http://edas#PaperPresentation>.  ?v1 <http://edas#relatedToEvent> ?answer0.  ?v1 <http://edas#relatesTo> ?v2.  ?v2 <http://edas#hasRelatedDocument> ?answer1.  ?answer1 a <http://edas#RatedPapers>.  
4.175910364145658 <-> ?answer0 a <http://edas#PaperPresentation>.  ?v1 <http://edas#relatedToEvent> ?answer0.  ?v2 <http://edas#hasRelatedDocument> ?v1.  ?answer1 <http://edas#relatesTo> ?v2.  ?answer1 a <http://edas#RatedPapers>.  
4.359243697478991 <-> ?answer0 a <http://edas#PaperPresentation>.  ?v1 <http://edas#relatedToEvent> ?answer0.  ?v2 <http://edas#hasRelatedPaper> ?v1.  ?v2 a <http://edas#Person>.  ?v2 <http://edas#hasRelatedPaper> ?answer1.  ?answer1 a <http://edas#RatedPapers>.  
4.573529411764706 <-> ?answer0 a <http://edas#PaperPresentation>.  ?answer0 <http://edas#hasRelatedDocument> ?v1.  ?v1 a <http://edas#SlideSet>.  ?v1 <http://edas#relatesTo> ?v2.  ?v2 <http://edas#hasRelatedDocument> ?answer1.  ?answer1 a <http://edas#RatedPapers>.  
4.806862745098039 <-> ?answer0 a <http://edas#PaperPresentation>.  ?answer0 <http://edas#hasRelatedDocument> ?v1.  ?v1 a <http://edas#SlideSet>.  ?v1 <http://edas#relatesTo> ?v2.  ?v2 a <http://edas#Presenter>.  ?v2 <http://edas#hasRelatedPaper> ?answer1.  
5.456862745098039 <-> ?answer0 a <http://edas#PaperPresentation>.  ?answer0 <http://edas#hasRelatedDocument> ?v1.  ?v1 a <http://edas#SlideSet>.  ?v1 <http://edas#relatesTo> ?v2.  ?v2 a <http://edas#Presenter>.  ?v2 <http://edas#hasRelatedPaper> ?answer1.  ?answer1 a <http://edas#RatedPapers>.  
creating directory: presentation_of_paper

Unary query : ?answer <http://conference#was_a_committee_chair_of> ?o2 . ?o2 <http://www.w3.org/1999/02/22-rdf-syntax-ns#type> <http://conference#Organizing_committee> .
Number of matched answers :5
Number of correspondences found: 6
0.6472222222222223 <-> ?answer <http://edas#hasLastName> ?someObject. 
0.6580989383703092 <-> ?answer <http://edas#isReviewing> ?someObject. 
0.6875000000000002 <-> ?x <http://edas#isWrittenBy> ?answer. ?x a <http://edas#ActivePaper>. 
0.7055555555555554 <-> ?answer <http://edas#hasFirstName> ?someObject. 
0.7431624647499913 <-> ?answer <http://edas#isMemberOf> ?someObject. 
0.8514957980833247 <-> ?someSubject <http://edas#hasMember> ?answer. 
creating directory: oc_chair

Unary query : ?answer <http://www.w3.org/1999/02/22-rdf-syntax-ns#type> <http://conference#Written_contribution> . minus{ ?answer a  <http://conference#Abstract> . }
Number of matched answers :10
Number of correspondences found: 11
0.6952080544399822 <-> ?someSubject <http://edas#hasRelatedDocument> ?answer. 
0.726217991316676 <-> ?someSubject <http://edas#hasRelatedPaper> ?answer. 
0.7556136563802396 <-> ?someSubject <http://edas#isReviewing> ?answer. 
0.7557816367623184 <-> ?answer <http://edas#hasTopic> ?y. ?y a <http://edas#Topic>. 
0.7812139398325763 <-> ?answer <http://edas#relatesTo> ?someObject. 
0.8019731210409179 <-> ?answer <http://edas#isReviewedBy> ?someObject. 
0.8339238353294993 <-> ?x <http://edas#isTopicOf> ?answer. ?x a <http://edas#Topic>. 
0.8407563025210085 <-> ?x <http://edas#relatedToPaper> ?answer. ?x a <http://edas#PaperPresentation>. 
0.8907563025210085 <-> ?answer <http://edas#relatedToEvent> ?y. ?y a <http://edas#PaperPresentation>. 
0.9060699588477367 <-> ?answer <http://edas#hasRating> ?y. ?y a <http://edas#RejectRating>. 
1.0101447481349435 <-> ?answer <http://edas#isWrittenBy> ?someObject. 
creating directory: paper

Unary query : ?answer <http://conference#gives_presentations> ?o3. ?o3 <http://conference#has_an_abstract> ?o2 . ?o4 <http://conference#has_an_abstract> ?o2 . ?o4 a <http://conference#Written_contribution> .
Number of matched answers :10
Number of correspondences found: 11
0.7017543859649122 <-> ?answer <http://www.w3.org/1999/02/22-rdf-syntax-ns#type> <http://edas#Presenter>. 
0.8145721540372468 <-> ?answer <http://edas#hasRelatedDocument> ?someObject. 
0.8836036725506379 <-> ?answer <http://edas#hasRelatedPaper> ?y. ?y a <http://edas#RatedPapers>. 
0.8924200135622902 <-> ?x <http://edas#isReviewedBy> ?answer. ?x a <http://edas#Document>. 
0.9411403508771929 <-> ?answer <http://edas#hasFirstName> ?someObject. 
0.9546491228070175 <-> ?answer <http://edas#hasLastName> ?someObject. 
0.9806135225432537 <-> ?answer <http://edas#isReviewing> ?y. ?y a <http://edas#RatedPapers>. 
1.1043504536187958 <-> ?x <http://edas#relatesTo> ?answer. ?x a <http://edas#SlideSet>. 
1.205731061480939 <-> ?someSubject <http://edas#isWrittenBy> ?answer. 
1.210658430339601 <-> ?someSubject <http://edas#hasMember> ?answer. 
1.3224182501170434 <-> ?answer <http://edas#isMemberOf> ?someObject. 
creating directory: presenter

Binary query : ?answer0 <http://conference#is_submitted_at> ?answer1 .
Number of matched answers :10
Number of correspondences found: 2
0.6333333333333331 <-> ?answer0 <http://edas#relatesTo> ?answer1.  
0.6666666666666664 <-> ?answer1 <http://edas#hasRelatedDocument> ?answer0.  
creating directory: paper_submitted_at_conference

Unary query : ?answer <http://conference#was_a_committee_chair_of> ?o2 . ?o2 <http://www.w3.org/1999/02/22-rdf-syntax-ns#type> <http://conference#Program_committee> .
Number of matched answers :5
Number of correspondences found: 8
0.6401616787065704 <-> ?answer <http://edas#hasRelatedDocument> ?y. ?y a <http://edas#Document>. 
0.6481695157298247 <-> ?answer <http://edas#isReviewing> ?y. ?y a <http://edas#Document>. 
0.6903082549634274 <-> ?answer <http://edas#hasRelatedPaper> ?y. ?y a <http://edas#Document>. 
0.7047549019607844 <-> ?x <http://edas#relatesTo> ?answer. ?x a <http://edas#Document>. 
0.7140522875816995 <-> ?answer <http://edas#hasLastName> ?someObject. 
0.7500681895015061 <-> ?x <http://edas#isWrittenBy> ?answer. ?x a <http://edas#Document>. 
0.8233839099714366 <-> ?answer <http://edas#isMemberOf> ?someObject. 
0.8405407727165347 <-> ?someSubject <http://edas#hasMember> ?answer. 
creating directory: pc_chair

Unary query : ?answer <http://www.w3.org/1999/02/22-rdf-syntax-ns#type> <http://conference#Paper> .
Number of matched answers :10
Number of correspondences found: 6
0.6512605042016806 <-> ?x <http://edas#relatedToPaper> ?answer. ?x a <http://edas#PaperPresentation>. 
0.6666666666666666 <-> ?answer <http://edas#isReviewedBy> ?someObject. 
0.6666666666666666 <-> ?someSubject <http://edas#isReviewing> ?answer. 
0.7377777777777778 <-> ?answer <http://edas#isWrittenBy> ?someObject. 
0.7479532862527726 <-> ?someSubject <http://edas#hasRelatedPaper> ?answer. 
1.0 <-> ?answer <http://www.w3.org/1999/02/22-rdf-syntax-ns#type> <http://edas#Paper>. 
creating directory: regular_paper

Binary query : { ?answer0 <http://www.w3.org/1999/02/22-rdf-syntax-ns#type> <http://conference#Paper> .   } UNION { ?answer0 <http://www.w3.org/1999/02/22-rdf-syntax-ns#type> <http://conference#Written_contribution> .   ?o2 <http://conference#is_the_1th_part_of> ?answer0. ?o2 <http://www.w3.org/1999/02/22-rdf-syntax-ns#type> <http://conference#Written_contribution> .   }  ?answer0 <http://www.w3.org/2000/01/rdf-schema#label> ?answer1.
Number of matched answers :10
Number of correspondences found: 1
3.411111111111111 <-> ?answer0 a <http://edas#Paper>.  ?answer0 <http://www.w3.org/2000/01/rdf-schema#label> ?answer1.  
creating directory: paper_title

Unary query : ?answer <http://www.w3.org/1999/02/22-rdf-syntax-ns#type> <http://conference#Presentation> . minus{ ?answer a <http://conference#Invited_talk> . }
Number of matched answers :10
Number of correspondences found: 5
0.8055555555555555 <-> ?answer <http://edas#hasRelatedDocument> ?y. ?y a <http://edas#SlideSet>. 
0.8823529411764706 <-> ?answer <http://www.w3.org/1999/02/22-rdf-syntax-ns#type> <http://edas#PaperPresentation>. 
0.8846153846153846 <-> ?answer <http://edas#relatedToPaper> ?y. ?y a <http://edas#AcceptedPaper>. 
0.8846153846153846 <-> ?x <http://edas#relatedToEvent> ?answer. ?x a <http://edas#AcceptedPaper>. 
1.0 <-> ?x <http://edas#relatesTo> ?answer. ?x a <http://edas#SlideSet>. 
creating directory: paper_presentation

Binary query : ?answer0 <http://www.w3.org/1999/02/22-rdf-syntax-ns#type> <http://conference#Abstract> .   ?answer0 <http://conference#is_the_1th_part_of> ?o2. ?o2 <http://www.w3.org/1999/02/22-rdf-syntax-ns#type> <http://conference#Written_contribution> .    ?answer0 <http://www.w3.org/2000/01/rdf-schema#label> ?answer1.
Number of matched answers :0
Number of correspondences found: 0

Binary query : ?answer0 a <http://conference#Presentation> . ?answer0 <http://conference#has_an_abstract> ?o2 . ?o4 <http://conference#has_an_abstract> ?o2 . ?o4 a <http://conference#Written_contribution> . ?o4 <http://conference#is_submitted_at> ?answer1.
Number of matched answers :10
Number of correspondences found: 3
3.8102240896358532 <-> ?answer0 a <http://edas#PaperPresentation>.  ?v1 <http://edas#relatedToEvent> ?answer0.  ?v1 a <http://edas#Document>.  ?answer1 <http://edas#hasRelatedDocument> ?v1.  
4.060224089635853 <-> ?answer0 a <http://edas#PaperPresentation>.  ?v1 <http://edas#relatedToEvent> ?answer0.  ?v1 a <http://edas#Document>.  ?v1 <http://edas#relatesTo> ?answer1.  
4.1078431372549025 <-> ?answer0 a <http://edas#PaperPresentation>.  ?answer0 <http://edas#hasRelatedDocument> ?v1.  ?v1 a <http://edas#SlideSet>.  ?v1 <http://edas#relatesTo> ?answer1.  
creating directory: presentation_in_conference
Matching process ended
