===============================================================================
creating directory: conference-ekaw
Running with 8 support instances - 0.4 similarity.
Number of CQAs: 73

Unary query : ?answer a <http://conference#Contribution_1th-author>.
Number of matched answers :8
Number of correspondences found: 5
0.0 <-> <http://ekaw-instances#paper-6196295681322198> <http://ekaw#writtenBy> ?answer. 
0.0 <-> ?answer <http://www.w3.org/2000/01/rdf-schema#label> ?someObject. 
0.0 <-> ?answer <http://ekaw#authorOf> ?someObject. 
0.0 <-> <http://ekaw-instances#review-1431904447151114_-196548216> <http://ekaw#reviewWrittenBy> ?answer. 
0.0 <-> ?answer <http://www.w3.org/1999/02/22-rdf-syntax-ns#type> <http://ekaw#Student>. 

Unary query : ?answer <http://www.w3.org/1999/02/22-rdf-syntax-ns#type> <http://conference#Publisher> .
Number of matched answers :5
Number of correspondences found: 1
0.8181818181818181 <-> ?answer <http://ekaw#publisherOf> ?someObject. 
creating directory: publisher

Unary query : ?answer <http://www.w3.org/1999/02/22-rdf-syntax-ns#type> <http://conference#Rejected_contribution> .
Number of matched answers :8
Number of correspondences found: 1
0.47619047619047616 <-> ?answer <http://www.w3.org/1999/02/22-rdf-syntax-ns#type> <http://ekaw#Rejected_Paper>. 
creating directory: rejected_paper

Binary query : ?answer0 <http://conference#has_the_last_name> ?answer1 .
Number of matched answers :8
Number of correspondences found: 0

Unary query : ?answer <http://www.w3.org/1999/02/22-rdf-syntax-ns#type> <http://conference#Track> .
Number of matched answers :8
Number of correspondences found: 1
1.0 <-> ?answer <http://www.w3.org/1999/02/22-rdf-syntax-ns#type> <http://ekaw#Track>. 
creating directory: track

Unary query : ?answer <http://www.w3.org/1999/02/22-rdf-syntax-ns#type> <http://conference#Conference_participant> .
Number of matched answers :8
Number of correspondences found: 5
0.6363636363636364 <-> ?x <http://ekaw#hasReviewer> ?answer. ?x a <http://ekaw#Conference_Paper>. 
0.6363636363636364 <-> ?x <http://ekaw#writtenBy> ?answer. ?x a <http://ekaw#Conference_Paper>. 
0.6363636363636364 <-> ?answer <http://ekaw#authorOf> ?y. ?y a <http://ekaw#Conference_Paper>. 
0.6363636363636364 <-> ?answer <http://ekaw#reviewerOfPaper> ?y. ?y a <http://ekaw#Conference_Paper>. 
1.0 <-> ?answer <http://www.w3.org/1999/02/22-rdf-syntax-ns#type> <http://ekaw#Conference_Participant>. 
creating directory: participant

Unary query : ?answer <http://conference#was_a_member_of> ?o2 . ?o2 <http://www.w3.org/1999/02/22-rdf-syntax-ns#type> <http://conference#Organizing_committee> .
Number of matched answers :8
Number of correspondences found: 2
0.4666666666666667 <-> ?answer <http://www.w3.org/1999/02/22-rdf-syntax-ns#type> <http://ekaw#PC_Member>. 
0.4666666666666667 <-> ?answer <http://www.w3.org/1999/02/22-rdf-syntax-ns#type> <http://ekaw#OC_Member>. 
creating directory: oc_member

Binary query : ?answer0 <http://www.w3.org/1999/02/22-rdf-syntax-ns#type> <http://conference#Conference_proceedings> .   ?answer0 <http://conference#has_a_name> ?answer1 .
Number of matched answers :5
Number of correspondences found: 1
1.5 <-> ?answer0 a <http://ekaw#Conference_Proceedings>.  ?answer0 <http://www.w3.org/2000/01/rdf-schema#label> ?answer1.  
creating directory: conference_proceedings_name

Binary query : ?answer1 <http://conference#has_workshops> ?answer0 .
Number of matched answers :8
Number of correspondences found: 2
1.1153846153846152 <-> ?answer0 a <http://ekaw#Workshop>.  ?answer1 <http://ekaw#hasEvent> ?answer0.  
1.1153846153846152 <-> ?answer0 a <http://ekaw#Workshop>.  ?answer0 <http://ekaw#partOf> ?answer1.  
creating directory: workshop_of_conference

Binary query : ?answer0 <http://conference#was_a_member_of> ?answer1 . ?answer1 <http://www.w3.org/1999/02/22-rdf-syntax-ns#type> <http://conference#Program_committee> .
Number of matched answers :8
Number of correspondences found: 0

Binary query : ?answer0 <http://conference#reviews> ?answer1 .
Number of matched answers :8
Number of correspondences found: 5
1.8186813186813189 <-> ?answer0 a <http://ekaw#Review>.  ?answer0 <http://ekaw#reviewOfPaper> ?v1.  ?v1 <http://ekaw#hasUpdatedVersion> ?answer1.  
1.818681318681319 <-> ?answer0 a <http://ekaw#Review>.  ?answer0 <http://ekaw#reviewOfPaper> ?answer1.  
1.9126984126984128 <-> ?answer0 a <http://ekaw#Review>.  ?answer1 <http://ekaw#hasReview> ?answer0.  
1.9126984126984128 <-> ?answer0 a <http://ekaw#Review>.  ?v1 <http://ekaw#hasReview> ?answer0.  ?v1 <http://ekaw#hasUpdatedVersion> ?answer1.  
1.9126984126984128 <-> ?answer0 a <http://ekaw#Review>.  ?v1 <http://ekaw#hasReview> ?answer0.  ?answer1 <http://ekaw#updatedVersionOf> ?v1.  
creating directory: review_of_paper

Binary query : ?answer0 <http://www.w3.org/1999/02/22-rdf-syntax-ns#type> <http://conference#Tutorial> .  ?answer0 <http://conference#has_a_track-workshop-tutorial_topic> ?answer1 .
Number of matched answers :8
Number of correspondences found: 2
1.5 <-> ?answer0 a <http://ekaw#Tutorial>.  ?answer0 <http://ekaw#coversTopic> ?answer1.  
1.5 <-> ?answer0 a <http://ekaw#Tutorial>.  ?answer1 <http://ekaw#topicCoveredBy> ?answer0.  
creating directory: tutorial_topic

Binary query : ?answer0 <http://conference#has_important_dates> ?o2 . ?o2 a <http://conference#Important_dates>. ?o2 <http://conference#is_a_date_of_acceptance_announcement> ?answer1.
Number of matched answers :5
Number of correspondences found: 0

Binary query : ?answer0 a <http://conference#Conference_participant>.      bind( if (exists {?answer0 a <http://conference#Early_paid_applicant>}, "true"^^<http://www.w3.org/2001/XMLSchema#boolean>,        if (exists {?answer0 a <http://conference#Late_paid_applicant>}, "false"^^<http://www.w3.org/2001/XMLSchema#boolean>,"")) as ?answer1)
Number of matched answers :8
Number of correspondences found: 0

Binary query : ?answer1 <http://conference#has_tutorials> ?answer0 .
Number of matched answers :8
Number of correspondences found: 2
1.1153846153846152 <-> ?answer0 a <http://ekaw#Tutorial>.  ?answer1 <http://ekaw#hasEvent> ?answer0.  
1.1153846153846152 <-> ?answer0 a <http://ekaw#Tutorial>.  ?answer0 <http://ekaw#partOf> ?answer1.  
creating directory: tutorial_of_conference

Binary query : ?answer0 <http://conference#has_a_location> ?answer1 .
Number of matched answers :5
Number of correspondences found: 2
1.0714285714285714 <-> ?answer0 <http://ekaw#heldIn> ?v1.  ?v1 a <http://ekaw#Location>.  ?v1 <http://www.w3.org/2000/01/rdf-schema#label> ?answer1.  
1.5 <-> ?v1 <http://ekaw#locationOf> ?answer0.  ?v1 a <http://ekaw#Location>.  ?v1 <http://www.w3.org/2000/01/rdf-schema#label> ?answer1.  
creating directory: conference_location

Unary query : ?answer a <http://conference#Conference_participant> .   ?answer a <http://conference#Late_paid_applicant> .
Number of matched answers :8
Number of correspondences found: 6
0.6363636363636364 <-> ?answer <http://ekaw#reviewerOfPaper> ?y. ?y a <http://ekaw#Conference_Paper>. 
0.6363636363636364 <-> ?x <http://ekaw#hasReviewer> ?answer. ?x a <http://ekaw#Conference_Paper>. 
0.6363636363636364 <-> ?x <http://ekaw#writtenBy> ?answer. ?x a <http://ekaw#Conference_Paper>. 
0.6363636363636364 <-> ?answer <http://ekaw#authorOf> ?y. ?y a <http://ekaw#Conference_Paper>. 
1.0 <-> ?answer <http://www.w3.org/1999/02/22-rdf-syntax-ns#type> <http://ekaw#Late-Registered_Participant>. 
1.0 <-> ?answer <http://www.w3.org/1999/02/22-rdf-syntax-ns#type> <http://ekaw#Conference_Participant>. 
creating directory: late_registered_participant

Unary query : ?answer <http://www.w3.org/1999/02/22-rdf-syntax-ns#type> <http://conference#Contribution_co-author> .
Number of matched answers :8
Number of correspondences found: 4
0.0 <-> ?answer <http://ekaw#authorOf> ?someObject. 
0.0 <-> ?someSubject <http://ekaw#writtenBy> ?answer. 
0.0 <-> ?answer <http://www.w3.org/2000/01/rdf-schema#label> "Harold Harefoot". 
0.0 <-> ?answer <http://www.w3.org/1999/02/22-rdf-syntax-ns#type> <http://ekaw#Early-Registered_Participant>. 

Binary query : ?answer1 a <http://conference#Abstract>. ?answer0 <http://conference#contributes> ?answer1 . ?o2 <http://conference#has_an_abstract> ?answer1. ?o2 a <http://conference#Invited_talk>.
Number of matched answers :8
Number of correspondences found: 2
2.6333333333333333 <-> ?answer0 a <http://ekaw#Invited_Speaker>.  ?answer1 <http://ekaw#writtenBy> ?answer0.  ?answer1 a <http://ekaw#Abstract>.  
2.6333333333333333 <-> ?answer0 a <http://ekaw#Invited_Speaker>.  ?answer0 <http://ekaw#authorOf> ?answer1.  ?answer1 a <http://ekaw#Abstract>.  
creating directory: author_of_inv_talk_abstract

Binary query : ?answer0 a <http://conference#Invited_speaker>. ?answer0 <http://conference#contributes> ?answer1 . ?answer1 a <http://conference#Invited_talk>.
Number of matched answers :8
Number of correspondences found: 4
4.747619047619048 <-> ?answer0 a <http://ekaw#Invited_Speaker>.  ?v1 <http://ekaw#writtenBy> ?answer0.  ?v1 a <http://ekaw#Invited_Talk_Abstract>.  ?answer1 <http://ekaw#presentationOfPaper> ?v1.  ?answer1 a <http://ekaw#Invited_Talk>.  
4.747619047619048 <-> ?answer0 a <http://ekaw#Invited_Speaker>.  ?answer0 <http://ekaw#authorOf> ?v1.  ?v1 a <http://ekaw#Invited_Talk_Abstract>.  ?v1 <http://ekaw#paperPresentedAs> ?answer1.  ?answer1 a <http://ekaw#Invited_Talk>.  
4.747619047619048 <-> ?answer0 a <http://ekaw#Invited_Speaker>.  ?answer0 <http://ekaw#authorOf> ?v1.  ?v1 a <http://ekaw#Invited_Talk_Abstract>.  ?answer1 <http://ekaw#presentationOfPaper> ?v1.  ?answer1 a <http://ekaw#Invited_Talk>.  
4.747619047619048 <-> ?answer0 a <http://ekaw#Invited_Speaker>.  ?v1 <http://ekaw#writtenBy> ?answer0.  ?v1 a <http://ekaw#Invited_Talk_Abstract>.  ?v1 <http://ekaw#paperPresentedAs> ?answer1.  ?answer1 a <http://ekaw#Invited_Talk>.  
creating directory: invited_speaker_of_talk

Binary query : ?answer0 <http://conference#contributes> ?o2 .  ?o2 <http://conference#reviews> ?answer1 .  ?answer0 <http://conference#was_a_member_of> ?o3 . ?o3 <http://www.w3.org/1999/02/22-rdf-syntax-ns#type> <http://conference#Program_committee> .
Number of matched answers :8
Number of correspondences found: 12
0.9 <-> ?answer0 <http://ekaw#reviewerOfPaper> ?v1.  ?answer1 <http://ekaw#updatedVersionOf> ?v1.  
0.9 <-> ?answer0 <http://ekaw#reviewerOfPaper> ?v1.  ?v1 <http://ekaw#hasUpdatedVersion> ?answer1.  
0.9000000000000001 <-> ?answer0 <http://ekaw#reviewerOfPaper> ?answer1.  
1.0454545454545452 <-> ?answer1 <http://ekaw#hasReviewer> ?answer0.  
1.0454545454545454 <-> ?v1 <http://ekaw#hasReviewer> ?answer0.  ?v1 <http://ekaw#hasUpdatedVersion> ?answer1.  
1.0454545454545454 <-> ?v1 <http://ekaw#hasReviewer> ?answer0.  ?answer1 <http://ekaw#updatedVersionOf> ?v1.  
1.4333333333333333 <-> ?answer0 a <http://ekaw#SC_Member>.  ?answer0 <http://ekaw#reviewerOfPaper> ?answer1.  
1.4333333333333333 <-> ?answer0 a <http://ekaw#SC_Member>.  ?answer0 <http://ekaw#reviewerOfPaper> ?v1.  ?v1 <http://ekaw#hasUpdatedVersion> ?answer1.  
1.4333333333333333 <-> ?answer0 a <http://ekaw#SC_Member>.  ?answer0 <http://ekaw#reviewerOfPaper> ?v1.  ?answer1 <http://ekaw#updatedVersionOf> ?v1.  
1.5787878787878786 <-> ?answer0 a <http://ekaw#SC_Member>.  ?v1 <http://ekaw#hasReviewer> ?answer0.  ?answer1 <http://ekaw#updatedVersionOf> ?v1.  
1.5787878787878786 <-> ?answer0 a <http://ekaw#SC_Member>.  ?answer1 <http://ekaw#hasReviewer> ?answer0.  
1.5787878787878786 <-> ?answer0 a <http://ekaw#SC_Member>.  ?v1 <http://ekaw#hasReviewer> ?answer0.  ?v1 <http://ekaw#hasUpdatedVersion> ?answer1.  
creating directory: is_assigned_reviewer_of

Unary query : ?answer <http://www.w3.org/1999/02/22-rdf-syntax-ns#type> <http://conference#Program_committee> .
Number of matched answers :0
Number of correspondences found: 0

Binary query : ?answer0 <http://conference#gives_presentations> ?answer1. ?answer1 a <http://conference#Presentation>.
Number of matched answers :8
Number of correspondences found: 15
2.2137681159420293 <-> ?answer0 a <http://ekaw#Presenter>.  ?v1 <http://ekaw#writtenBy> ?answer0.  ?v2 <http://ekaw#topicCoveredBy> ?v1.  ?answer1 <http://ekaw#coversTopic> ?v2.  ?answer1 a <http://ekaw#Individual_Presentation>.  
2.2137681159420293 <-> ?answer0 a <http://ekaw#Presenter>.  ?v1 <http://ekaw#writtenBy> ?answer0.  ?v1 <http://ekaw#coversTopic> ?v2.  ?v2 <http://ekaw#topicCoveredBy> ?answer1.  ?answer1 a <http://ekaw#Individual_Presentation>.  
2.2137681159420293 <-> ?answer0 a <http://ekaw#Presenter>.  ?answer0 <http://ekaw#authorOf> ?v1.  ?v1 <http://ekaw#coversTopic> ?v2.  ?v2 <http://ekaw#topicCoveredBy> ?answer1.  ?answer1 a <http://ekaw#Individual_Presentation>.  
2.2137681159420293 <-> ?answer0 a <http://ekaw#Presenter>.  ?v1 <http://ekaw#writtenBy> ?answer0.  ?v2 <http://ekaw#topicCoveredBy> ?v1.  ?v2 <http://ekaw#topicCoveredBy> ?answer1.  ?answer1 a <http://ekaw#Individual_Presentation>.  
2.2137681159420293 <-> ?answer0 a <http://ekaw#Presenter>.  ?answer0 <http://ekaw#authorOf> ?v1.  ?v2 <http://ekaw#topicCoveredBy> ?v1.  ?v2 <http://ekaw#topicCoveredBy> ?answer1.  ?answer1 a <http://ekaw#Individual_Presentation>.  
2.6874523264683448 <-> ?answer0 a <http://ekaw#Presenter>.  ?v1 <http://ekaw#writtenBy> ?answer0.  ?v2 <http://ekaw#updatedVersionOf> ?v1.  ?v2 <http://ekaw#paperPresentedAs> ?answer1.  ?answer1 a <http://ekaw#Individual_Presentation>.  
2.6874523264683448 <-> ?answer0 a <http://ekaw#Presenter>.  ?answer0 <http://ekaw#authorOf> ?v1.  ?v1 <http://ekaw#paperPresentedAs> ?answer1.  ?answer1 a <http://ekaw#Individual_Presentation>.  
2.6874523264683448 <-> ?answer0 a <http://ekaw#Presenter>.  ?v1 <http://ekaw#writtenBy> ?answer0.  ?v1 <http://ekaw#paperPresentedAs> ?answer1.  ?answer1 a <http://ekaw#Individual_Presentation>.  
2.6874523264683448 <-> ?answer0 a <http://ekaw#Presenter>.  ?answer0 <http://ekaw#authorOf> ?v1.  ?v1 <http://ekaw#hasUpdatedVersion> ?v2.  ?v2 <http://ekaw#paperPresentedAs> ?answer1.  ?answer1 a <http://ekaw#Individual_Presentation>.  
2.6874523264683448 <-> ?answer0 a <http://ekaw#Presenter>.  ?v1 <http://ekaw#writtenBy> ?answer0.  ?v1 <http://ekaw#hasUpdatedVersion> ?v2.  ?v2 <http://ekaw#paperPresentedAs> ?answer1.  ?answer1 a <http://ekaw#Individual_Presentation>.  
2.6874523264683448 <-> ?answer0 a <http://ekaw#Presenter>.  ?answer0 <http://ekaw#authorOf> ?v1.  ?v2 <http://ekaw#updatedVersionOf> ?v1.  ?v2 <http://ekaw#paperPresentedAs> ?answer1.  ?answer1 a <http://ekaw#Individual_Presentation>.  
2.84534706331045 <-> ?answer0 a <http://ekaw#Presenter>.  ?answer0 <http://ekaw#authorOf> ?v1.  ?answer1 <http://ekaw#presentationOfPaper> ?v1.  ?answer1 a <http://ekaw#Individual_Presentation>.  
2.84534706331045 <-> ?answer0 a <http://ekaw#Presenter>.  ?v1 <http://ekaw#writtenBy> ?answer0.  ?answer1 <http://ekaw#presentationOfPaper> ?v1.  ?answer1 a <http://ekaw#Individual_Presentation>.  
2.84534706331045 <-> ?answer0 a <http://ekaw#Presenter>.  ?v1 <http://ekaw#writtenBy> ?answer0.  ?v2 <http://ekaw#updatedVersionOf> ?v1.  ?answer1 <http://ekaw#presentationOfPaper> ?v2.  ?answer1 a <http://ekaw#Individual_Presentation>.  
2.84534706331045 <-> ?answer0 a <http://ekaw#Presenter>.  ?v1 <http://ekaw#writtenBy> ?answer0.  ?v1 <http://ekaw#hasUpdatedVersion> ?v2.  ?answer1 <http://ekaw#presentationOfPaper> ?v2.  ?answer1 a <http://ekaw#Individual_Presentation>.  
creating directory: presenter_of_paper_presentation

Unary query : ?answer <http://www.w3.org/1999/02/22-rdf-syntax-ns#type> <http://conference#Reviewer> .  ?answer <http://conference#invited_by> ?o2 .
Number of matched answers :8
Number of correspondences found: 3
0.75 <-> ?answer <http://ekaw#authorOf> ?y. ?y a <http://ekaw#Review>. 
1.1666666666666665 <-> ?x <http://ekaw#writtenBy> ?answer. ?x a <http://ekaw#Review>. 
1.2166666666666668 <-> ?x <http://ekaw#reviewWrittenBy> ?answer. ?x a <http://ekaw#Review>. 
creating directory: external_reviewer

Binary query : ?answer0 <http://conference#has_important_dates> ?o2 . ?o2 <http://conference#is_a_date_of_camera_ready_paper_submission> ?answer1 .
Number of matched answers :5
Number of correspondences found: 0

Binary query : ?answer0 <http://conference#contributes> ?answer1 .   ?answer1 <http://www.w3.org/1999/02/22-rdf-syntax-ns#type> <http://conference#Review> .    ?answer0 <http://conference#was_a_member_of> ?o3 . ?o3 <http://www.w3.org/1999/02/22-rdf-syntax-ns#type> <http://conference#Program_committee> .
Number of matched answers :8
Number of correspondences found: 2
1.5 <-> ?answer0 <http://ekaw#authorOf> ?answer1.  ?answer1 a <http://ekaw#Review>.  
1.9000000000000001 <-> ?answer1 <http://ekaw#reviewWrittenBy> ?answer0.  ?answer1 a <http://ekaw#Review>.  
creating directory: assigned_reviewer_author_of_review

Binary query : ?answer1 <http://conference#has_tracks> ?answer0 .
Number of matched answers :8
Number of correspondences found: 2
0.5 <-> ?answer1 <http://ekaw#hasEvent> ?answer0.  
0.5 <-> ?answer0 <http://ekaw#partOf> ?answer1.  
creating directory: track_of_conference

Binary query : ?answer0 <http://conference#was_a_track-workshop_chair_of> ?answer1 . ?answer1 <http://www.w3.org/1999/02/22-rdf-syntax-ns#type> <http://conference#Workshop> .
Number of matched answers :8
Number of correspondences found: 2
2.554187192118227 <-> ?answer0 a <http://ekaw#Workshop_Chair>.  ?answer1 <http://ekaw#organisedBy> ?answer0.  ?answer1 a <http://ekaw#Workshop>.  
2.554187192118227 <-> ?answer0 a <http://ekaw#Workshop_Chair>.  ?answer0 <http://ekaw#organises> ?answer1.  ?answer1 a <http://ekaw#Workshop>.  
creating directory: chair_of_workshop

Unary query : ?answer <http://www.w3.org/1999/02/22-rdf-syntax-ns#type> <http://conference#Conference_volume> .
Number of matched answers :5
Number of correspondences found: 4
0.653781512605042 <-> ?answer <http://ekaw#hasEvent> ?y. ?y a <http://ekaw#Conference_Banquet>. 
0.6624649859943978 <-> ?x <http://ekaw#partOf> ?answer. ?x a <http://ekaw#Conference_Trip>. 
0.6624649859943978 <-> ?answer <http://ekaw#hasPart> ?y. ?y a <http://ekaw#Conference_Trip>. 
0.6624649859943978 <-> ?x <http://ekaw#partOfEvent> ?answer. ?x a <http://ekaw#Conference_Trip>. 
creating directory: conference

Binary query : ?answer0 <http://conference#has_the_first_name> ?o1 .  ?answer0 <http://conference#has_the_last_name> ?o2 .   BIND( concat(STR(?o1)," ", STR(?o2)) as ?answer1)
Number of matched answers :8
Number of correspondences found: 1
0.5 <-> ?answer0 <http://www.w3.org/2000/01/rdf-schema#label> ?answer1.  
creating directory: person_name

Unary query : ?answer <http://www.w3.org/1999/02/22-rdf-syntax-ns#type> <http://conference#Person> .
Number of matched answers :8
Number of correspondences found: 1
1.0 <-> ?answer <http://www.w3.org/1999/02/22-rdf-syntax-ns#type> <http://ekaw#Person>. 
creating directory: person

Unary query : ?answer <http://www.w3.org/1999/02/22-rdf-syntax-ns#type> <http://conference#Conference_proceedings> .
Number of matched answers :5
Number of correspondences found: 1
1.0 <-> ?answer <http://www.w3.org/1999/02/22-rdf-syntax-ns#type> <http://ekaw#Conference_Proceedings>. 
creating directory: conference_proceedings

Binary query : ?answer0 <http://conference#has_a_publisher> ?answer1 .
Number of matched answers :5
Number of correspondences found: 1
0.9666666666666666 <-> ?answer1 <http://ekaw#publisherOf> ?answer0.  
creating directory: proceedings_publisher

Binary query : ?answer0 <http://conference#has_important_dates> ?o2 .   ?answer0 a <http://conference#Conference_volume> . ?o2 <http://conference#is_a_starting_date> ?answer1 .
Number of matched answers :5
Number of correspondences found: 0

Binary query : ?answer0 <http://conference#invites_co-reviewers> ?answer1 .
Number of matched answers :8
Number of correspondences found: 3
0.5 <-> ?v1 <http://ekaw#reviewWrittenBy> ?answer0.  ?v1 <http://ekaw#reviewWrittenBy> ?answer1.  
0.5 <-> ?v1 <http://ekaw#reviewWrittenBy> ?answer0.  ?answer1 <http://ekaw#authorOf> ?v1.  
0.5 <-> ?answer0 <http://ekaw#authorOf> ?v1.  ?v1 <http://ekaw#reviewWrittenBy> ?answer1.  
creating directory: invite_reviewer

Unary query : ?answer <http://www.w3.org/1999/02/22-rdf-syntax-ns#type> <http://conference#Tutorial> .
Number of matched answers :8
Number of correspondences found: 1
1.0 <-> ?answer <http://www.w3.org/1999/02/22-rdf-syntax-ns#type> <http://ekaw#Tutorial>. 
creating directory: tutorial

Unary query : ?answer a <http://conference#Conference_participant> .   ?answer a <http://conference#Early_paid_applicant> .
Number of matched answers :8
Number of correspondences found: 6
0.6363636363636364 <-> ?x <http://ekaw#hasReviewer> ?answer. ?x a <http://ekaw#Conference_Paper>. 
0.6363636363636364 <-> ?x <http://ekaw#writtenBy> ?answer. ?x a <http://ekaw#Conference_Paper>. 
0.6363636363636364 <-> ?answer <http://ekaw#authorOf> ?y. ?y a <http://ekaw#Conference_Paper>. 
0.6363636363636364 <-> ?answer <http://ekaw#reviewerOfPaper> ?y. ?y a <http://ekaw#Conference_Paper>. 
1.0 <-> ?answer <http://www.w3.org/1999/02/22-rdf-syntax-ns#type> <http://ekaw#Conference_Participant>. 
1.0 <-> ?answer <http://www.w3.org/1999/02/22-rdf-syntax-ns#type> <http://ekaw#Early-Registered_Participant>. 
creating directory: early_registered_participant

Binary query : ?answer0 <http://www.w3.org/1999/02/22-rdf-syntax-ns#type> <http://conference#Conference> . ?answer0 <http://conference#has_a_name> ?answer1 .
Number of matched answers :5
Number of correspondences found: 1
1.5 <-> ?answer0 a <http://ekaw#Conference>.  ?answer0 <http://www.w3.org/2000/01/rdf-schema#label> ?answer1.  
creating directory: conference_name

Unary query : ?answer <http://www.w3.org/1999/02/22-rdf-syntax-ns#type> <http://conference#Abstract> .   ?answer <http://conference#is_the_1th_part_of> ?o2. ?o2 <http://www.w3.org/1999/02/22-rdf-syntax-ns#type> <http://conference#Written_contribution> .
Number of matched answers :0
Number of correspondences found: 0

Unary query : ?answer <http://conference#was_a_member_of> ?o2 . ?o2 <http://www.w3.org/1999/02/22-rdf-syntax-ns#type> <http://conference#Program_committee> .
Number of matched answers :8
Number of correspondences found: 1
0.4666666666666667 <-> ?answer <http://www.w3.org/1999/02/22-rdf-syntax-ns#type> <http://ekaw#PC_Member>. 
creating directory: pc_member

Unary query : ?answer <http://www.w3.org/1999/02/22-rdf-syntax-ns#type> <http://conference#Workshop> .
Number of matched answers :8
Number of correspondences found: 1
1.0 <-> ?answer <http://www.w3.org/1999/02/22-rdf-syntax-ns#type> <http://ekaw#Workshop>. 
creating directory: workshop

Binary query : ?answer0 <http://conference#has_important_dates> ?o2 . ?o2 <http://conference#is_a_full_paper_submission_date> ?answer1 .
Number of matched answers :5
Number of correspondences found: 0

Unary query : ?answer <http://www.w3.org/1999/02/22-rdf-syntax-ns#type> <http://conference#Reviewer> . ?answer <http://conference#was_a_member_of> ?o2 . ?o2 <http://www.w3.org/1999/02/22-rdf-syntax-ns#type> <http://conference#Program_committee> .
Number of matched answers :8
Number of correspondences found: 4
0.7272727272727268 <-> ?someSubject <http://ekaw#hasReviewer> ?answer. 
0.75 <-> ?answer <http://ekaw#authorOf> ?y. ?y a <http://ekaw#Review>. 
0.758187134502924 <-> ?x <http://ekaw#writtenBy> ?answer. ?x a <http://ekaw#Review>. 
1.2166666666666668 <-> ?x <http://ekaw#reviewWrittenBy> ?answer. ?x a <http://ekaw#Review>. 
creating directory: assigned_reviewer

Unary query : ?answer <http://www.w3.org/1999/02/22-rdf-syntax-ns#type> <http://conference#Accepted_contribution> .
Number of matched answers :8
Number of correspondences found: 3
0.47619047619047616 <-> ?answer <http://www.w3.org/1999/02/22-rdf-syntax-ns#type> <http://ekaw#Accepted_Paper>. 
0.47619047619047616 <-> ?answer <http://ekaw#updatedVersionOf> ?y. ?y a <http://ekaw#Accepted_Paper>. 
0.47619047619047616 <-> ?x <http://ekaw#hasUpdatedVersion> ?answer. ?x a <http://ekaw#Accepted_Paper>. 
creating directory: accepted_paper

Unary query : ?answer <http://www.w3.org/1999/02/22-rdf-syntax-ns#type> <http://conference#Conference_www> .
Number of matched answers :5
Number of correspondences found: 2
0.7142857142857143 <-> ?x <http://ekaw#eventOnList> ?answer. ?x a <http://ekaw#Conference>. 
0.7142857142857143 <-> ?answer <http://ekaw#listsEvent> ?y. ?y a <http://ekaw#Conference>. 
creating directory: conference_site

Unary query : ?answer <http://conference#was_a_track-workshop_chair_of> ?o2 . ?o2 <http://www.w3.org/1999/02/22-rdf-syntax-ns#type> <http://conference#Workshop> .
Number of matched answers :8
Number of correspondences found: 3
1.0 <-> ?answer <http://ekaw#organises> ?y. ?y a <http://ekaw#Workshop>. 
1.0 <-> ?x <http://ekaw#organisedBy> ?answer. ?x a <http://ekaw#Workshop>. 
1.0541871921182264 <-> ?answer <http://www.w3.org/1999/02/22-rdf-syntax-ns#type> <http://ekaw#Workshop_Chair>. 
creating directory: workshop_chair

Unary query : ?answer <http://conference#is_the_1th_part_of> ?o2 . ?o2 <http://www.w3.org/1999/02/22-rdf-syntax-ns#type> <http://conference#Invited_talk> .
Number of matched answers :8
Number of correspondences found: 4
0.6 <-> ?x <http://ekaw#authorOf> ?answer. ?x a <http://ekaw#Invited_Speaker>. 
0.6 <-> ?answer <http://ekaw#writtenBy> ?y. ?y a <http://ekaw#Invited_Speaker>. 
1.0 <-> ?answer <http://ekaw#paperPresentedAs> ?y. ?y a <http://ekaw#Invited_Talk>. 
1.0 <-> ?x <http://ekaw#presentationOfPaper> ?answer. ?x a <http://ekaw#Invited_Talk>. 
creating directory: invited_talk_abstract

Unary query : ?answer <http://www.w3.org/1999/02/22-rdf-syntax-ns#type> <http://conference#Invited_speaker> .
Number of matched answers :8
Number of correspondences found: 2
0.8666666666666668 <-> ?answer <http://ekaw#reviewerOfPaper> ?y. ?y a <http://ekaw#Accepted_Paper>. 
1.0 <-> ?answer <http://www.w3.org/1999/02/22-rdf-syntax-ns#type> <http://ekaw#Invited_Speaker>. 
creating directory: invited_speaker

Binary query : ?answer0 <http://www.w3.org/1999/02/22-rdf-syntax-ns#type> <http://conference#Regular_author> . ?answer0 <http://conference#contributes> ?answer1 . ?answer1 <http://www.w3.org/1999/02/22-rdf-syntax-ns#type> <http://conference#Written_contribution> .   minus{  ?answer1 <http://www.w3.org/1999/02/22-rdf-syntax-ns#type> <http://conference#Abstract> .   }
Number of matched answers :8
Number of correspondences found: 8
1.0714285714285714 <-> ?answer0 a <http://ekaw#Paper_Author>.  ?answer0 <http://ekaw#authorOf> ?answer1.  
1.4714285714285715 <-> ?answer0 a <http://ekaw#Paper_Author>.  ?answer1 <http://ekaw#writtenBy> ?answer0.  
1.7142857142857142 <-> ?answer0 a <http://ekaw#Paper_Author>.  ?answer0 <http://ekaw#authorOf> ?v1.  ?v1 a <http://ekaw#Regular_Paper>.  ?v1 <http://ekaw#hasUpdatedVersion> ?answer1.  
1.7142857142857142 <-> ?answer0 a <http://ekaw#Paper_Author>.  ?answer0 <http://ekaw#authorOf> ?v1.  ?v1 a <http://ekaw#Regular_Paper>.  ?answer1 <http://ekaw#updatedVersionOf> ?v1.  
1.7142857142857142 <-> ?answer0 a <http://ekaw#Paper_Author>.  ?answer0 <http://ekaw#authorOf> ?answer1.  ?answer1 a <http://ekaw#Regular_Paper>.  
2.1142857142857143 <-> ?answer0 a <http://ekaw#Paper_Author>.  ?answer1 <http://ekaw#writtenBy> ?answer0.  ?answer1 a <http://ekaw#Regular_Paper>.  
2.1142857142857143 <-> ?answer0 a <http://ekaw#Paper_Author>.  ?v1 <http://ekaw#writtenBy> ?answer0.  ?v1 a <http://ekaw#Regular_Paper>.  ?v1 <http://ekaw#hasUpdatedVersion> ?answer1.  
2.1142857142857143 <-> ?answer0 a <http://ekaw#Paper_Author>.  ?v1 <http://ekaw#writtenBy> ?answer0.  ?v1 a <http://ekaw#Regular_Paper>.  ?answer1 <http://ekaw#updatedVersionOf> ?v1.  
creating directory: is_author_of_paper

Binary query : ?answer0 <http://conference#has_important_dates> ?o2 . ?o2 <http://conference#is_an_ending_date> ?answer1 .
Number of matched answers :5
Number of correspondences found: 0

Unary query : ?answer <http://www.w3.org/1999/02/22-rdf-syntax-ns#type> <http://conference#Topic> .
Number of matched answers :8
Number of correspondences found: 1
0.4545454545454546 <-> ?someSubject <http://ekaw#coversTopic> ?answer. 
creating directory: topic

Binary query : ?answer0 a <http://conference#Abstract>. ?answer1 <http://conference#has_an_abstract> ?answer0 . ?answer1 a <http://conference#Invited_talk>.
Number of matched answers :8
Number of correspondences found: 2
3.033333333333333 <-> ?answer0 a <http://ekaw#Abstract>.  ?answer0 <http://ekaw#paperPresentedAs> ?answer1.  ?answer1 a <http://ekaw#Invited_Talk>.  
3.033333333333333 <-> ?answer0 a <http://ekaw#Abstract>.  ?answer1 <http://ekaw#presentationOfPaper> ?answer0.  ?answer1 a <http://ekaw#Invited_Talk>.  
creating directory: abstract_of_invited_talk

Unary query : ?o2 a <http://conference#Conference_www>. ?o2 <http://conference#has_a_URL> ?answer .
Number of matched answers :0
Number of correspondences found: 0

Unary query : ?answer <http://conference#was_a_member_of> ?o2 . ?o2 <http://www.w3.org/1999/02/22-rdf-syntax-ns#type> <http://conference#Steering_committee> .
Number of matched answers :8
Number of correspondences found: 1
0.5333333333333333 <-> ?answer <http://www.w3.org/1999/02/22-rdf-syntax-ns#type> <http://ekaw#SC_Member>. 
creating directory: sc_member

Binary query : ?answer1 <http://conference#has_authors> ?answer0 . ?answer1 <http://www.w3.org/1999/02/22-rdf-syntax-ns#type> <http://conference#Review> .
Number of matched answers :8
Number of correspondences found: 2
2.483333333333334 <-> ?answer0 a <http://ekaw#Paper_Author>.  ?answer1 <http://ekaw#reviewWrittenBy> ?answer0.  ?answer1 a <http://ekaw#Review>.  
2.5378787878787885 <-> ?answer0 a <http://ekaw#Paper_Author>.  ?answer0 <http://ekaw#authorOf> ?answer1.  ?answer1 a <http://ekaw#Review>.  
creating directory: all_reviewer_author_of_review

Unary query : ?answer <http://www.w3.org/1999/02/22-rdf-syntax-ns#type> <http://conference#Reviewer> .
Number of matched answers :8
Number of correspondences found: 3
0.75 <-> ?answer <http://ekaw#authorOf> ?y. ?y a <http://ekaw#Review>. 
0.8666666666666667 <-> ?x <http://ekaw#writtenBy> ?answer. ?x a <http://ekaw#Review>. 
1.2166666666666668 <-> ?x <http://ekaw#reviewWrittenBy> ?answer. ?x a <http://ekaw#Review>. 
creating directory: reviewers_all

Unary query : ?answer <http://www.w3.org/1999/02/22-rdf-syntax-ns#type> <http://conference#Review> .
Number of matched answers :8
Number of correspondences found: 2
0.6666666666666669 <-> ?someSubject <http://ekaw#hasReview> ?answer. 
1.0 <-> ?answer <http://www.w3.org/1999/02/22-rdf-syntax-ns#type> <http://ekaw#Review>. 
creating directory: review

Binary query : ?answer0 <http://conference#has_the_first_name> ?answer1 .
Number of matched answers :8
Number of correspondences found: 0

Binary query : ?answer0 <http://www.w3.org/1999/02/22-rdf-syntax-ns#type> <http://conference#Workshop> .  ?answer0 <http://conference#has_a_track-workshop-tutorial_topic> ?answer1 .
Number of matched answers :8
Number of correspondences found: 2
1.5 <-> ?answer0 a <http://ekaw#Workshop>.  ?answer1 <http://ekaw#topicCoveredBy> ?answer0.  
1.5 <-> ?answer0 a <http://ekaw#Workshop>.  ?answer0 <http://ekaw#coversTopic> ?answer1.  
creating directory: workshop_topic

Unary query : ?answer a <http://conference#Invited_talk> .
Number of matched answers :8
Number of correspondences found: 1
1.0 <-> ?answer <http://www.w3.org/1999/02/22-rdf-syntax-ns#type> <http://ekaw#Invited_Talk>. 
creating directory: invited_talk

Unary query : ?answer <http://www.w3.org/1999/02/22-rdf-syntax-ns#type> <http://conference#Regular_author> .
Number of matched answers :8
Number of correspondences found: 3
0.5714285714285714 <-> ?answer <http://www.w3.org/1999/02/22-rdf-syntax-ns#type> <http://ekaw#Paper_Author>. 
0.6428571428571428 <-> ?x <http://ekaw#writtenBy> ?answer. ?x a <http://ekaw#Regular_Paper>. 
0.6428571428571428 <-> ?answer <http://ekaw#authorOf> ?y. ?y a <http://ekaw#Regular_Paper>. 
creating directory: author

Binary query : ?answer0 a <http://conference#Written_contribution> . ?answer0 <http://conference#has_an_abstract> ?answer1 .
Number of matched answers :8
Number of correspondences found: 0

Binary query : ?answer0 a <http://conference#Presentation>. ?answer0 <http://conference#has_an_abstract> ?o2 . ?answer1 <http://conference#has_an_abstract> ?o2 . ?answer1 a <http://conference#Written_contribution> .
Number of matched answers :8
Number of correspondences found: 9
1.0217391304347827 <-> ?answer0 a <http://ekaw#Individual_Presentation>.  ?v1 <http://ekaw#topicCoveredBy> ?answer0.  ?answer1 <http://ekaw#coversTopic> ?v1.  
1.0217391304347827 <-> ?answer0 a <http://ekaw#Individual_Presentation>.  ?answer0 <http://ekaw#coversTopic> ?v1.  ?v1 <http://ekaw#topicCoveredBy> ?answer1.  
1.0217391304347827 <-> ?answer0 a <http://ekaw#Individual_Presentation>.  ?v1 <http://ekaw#topicCoveredBy> ?answer0.  ?v1 <http://ekaw#topicCoveredBy> ?answer1.  
1.021739130434783 <-> ?answer0 a <http://ekaw#Individual_Presentation>.  ?v1 <http://ekaw#paperPresentedAs> ?answer0.  ?v1 <http://ekaw#updatedVersionOf> ?answer1.  
1.021739130434783 <-> ?answer0 a <http://ekaw#Individual_Presentation>.  ?v1 <http://ekaw#paperPresentedAs> ?answer0.  ?answer1 <http://ekaw#hasUpdatedVersion> ?v1.  
1.021739130434783 <-> ?answer0 a <http://ekaw#Individual_Presentation>.  ?answer1 <http://ekaw#paperPresentedAs> ?answer0.  
1.653318077803203 <-> ?answer0 a <http://ekaw#Individual_Presentation>.  ?answer0 <http://ekaw#presentationOfPaper> ?answer1.  
1.6533180778032033 <-> ?answer0 a <http://ekaw#Individual_Presentation>.  ?answer0 <http://ekaw#presentationOfPaper> ?v1.  ?v1 <http://ekaw#updatedVersionOf> ?answer1.  
1.6533180778032033 <-> ?answer0 a <http://ekaw#Individual_Presentation>.  ?answer0 <http://ekaw#presentationOfPaper> ?v1.  ?answer1 <http://ekaw#hasUpdatedVersion> ?v1.  
creating directory: presentation_of_paper

Unary query : ?answer <http://conference#was_a_committee_chair_of> ?o2 . ?o2 <http://www.w3.org/1999/02/22-rdf-syntax-ns#type> <http://conference#Organizing_committee> .
Number of matched answers :5
Number of correspondences found: 5
0.0 <-> <http://ekaw-instances#review-554085786002198_-196548214> <http://ekaw#reviewWrittenBy> ?answer. 
0.0 <-> ?answer <http://www.w3.org/1999/02/22-rdf-syntax-ns#type> <http://ekaw#Early-Registered_Participant>. 
0.0 <-> ?answer <http://ekaw#authorOf> <http://ekaw-instances#review-1921869894163257_-196548214>. 
0.0 <-> ?answer <http://www.w3.org/1999/02/22-rdf-syntax-ns#type> <http://ekaw#OC_Member>. 
0.0 <-> ?answer <http://www.w3.org/1999/02/22-rdf-syntax-ns#type> <http://ekaw#Late-Registered_Participant>. 

Unary query : ?answer <http://www.w3.org/1999/02/22-rdf-syntax-ns#type> <http://conference#Written_contribution> . minus{ ?answer a  <http://conference#Abstract> . }
Number of matched answers :8
Number of correspondences found: 1
0.39999999999999997 <-> ?answer <http://ekaw#writtenBy> ?someObject. 
creating directory: paper

Unary query : ?answer <http://conference#gives_presentations> ?o3. ?o3 <http://conference#has_an_abstract> ?o2 . ?o4 <http://conference#has_an_abstract> ?o2 . ?o4 a <http://conference#Written_contribution> .
Number of matched answers :8
Number of correspondences found: 2
0.41666666666666663 <-> ?answer <http://ekaw#reviewerOfPaper> <http://ekaw-instances#paper-5647298423341114>. 
creating directory: presenter

Binary query : ?answer0 <http://conference#is_submitted_at> ?answer1 .
Number of matched answers :8
Number of correspondences found: 20
0.5 <-> ?answer0 <http://ekaw#paperPresentedAs> ?v1.  ?v1 <http://ekaw#partOf> ?answer1.  
0.5 <-> ?v1 <http://ekaw#presentationOfPaper> ?answer0.  ?answer1 <http://ekaw#hasEvent> ?v1.  
0.5 <-> ?v1 <http://ekaw#presentationOfPaper> ?answer0.  ?v1 <http://ekaw#partOf> ?answer1.  
1.0333333333333332 <-> ?answer0 a <http://ekaw#Submitted_Paper>.  ?v1 <http://ekaw#updatedVersionOf> ?answer0.  ?v2 <http://ekaw#presentationOfPaper> ?v1.  ?answer1 <http://ekaw#hasEvent> ?v2.  
1.0333333333333332 <-> ?answer0 a <http://ekaw#Submitted_Paper>.  ?answer0 <http://ekaw#writtenBy> ?v1.  ?v1 <http://ekaw#organises> ?v2.  ?answer1 <http://ekaw#hasEvent> ?v2.  
1.0333333333333332 <-> ?answer0 a <http://ekaw#Submitted_Paper>.  ?answer0 <http://ekaw#coversTopic> ?v1.  ?v1 <http://ekaw#topicCoveredBy> ?v2.  ?v2 <http://ekaw#partOf> ?answer1.  
1.0333333333333332 <-> ?answer0 a <http://ekaw#Submitted_Paper>.  ?v1 <http://ekaw#topicCoveredBy> ?answer0.  ?v2 <http://ekaw#coversTopic> ?v1.  ?v2 <http://ekaw#partOf> ?answer1.  
1.0333333333333332 <-> ?answer0 a <http://ekaw#Submitted_Paper>.  ?v1 <http://ekaw#topicCoveredBy> ?answer0.  ?v2 <http://ekaw#coversTopic> ?v1.  ?answer1 <http://ekaw#hasEvent> ?v2.  
1.0333333333333332 <-> ?answer0 a <http://ekaw#Submitted_Paper>.  ?v1 <http://ekaw#authorOf> ?answer0.  ?v1 <http://ekaw#organises> ?v2.  ?v2 <http://ekaw#partOf> ?answer1.  
1.0333333333333332 <-> ?answer0 a <http://ekaw#Submitted_Paper>.  ?v1 <http://ekaw#topicCoveredBy> ?answer0.  ?v1 <http://ekaw#topicCoveredBy> ?v2.  ?v2 <http://ekaw#partOf> ?answer1.  
1.0333333333333332 <-> ?answer0 a <http://ekaw#Submitted_Paper>.  ?answer0 <http://ekaw#coversTopic> ?v1.  ?v1 <http://ekaw#topicCoveredBy> ?v2.  ?answer1 <http://ekaw#hasEvent> ?v2.  
1.0333333333333332 <-> ?answer0 a <http://ekaw#Submitted_Paper>.  ?v1 <http://ekaw#authorOf> ?answer0.  ?v2 <http://ekaw#organisedBy> ?v1.  ?v2 <http://ekaw#partOf> ?answer1.  
1.0333333333333332 <-> ?answer0 a <http://ekaw#Submitted_Paper>.  ?v1 <http://ekaw#updatedVersionOf> ?answer0.  ?v1 <http://ekaw#paperPresentedAs> ?v2.  ?v2 <http://ekaw#partOf> ?answer1.  
1.0333333333333332 <-> ?answer0 a <http://ekaw#Submitted_Paper>.  ?answer0 <http://ekaw#hasReviewer> ?v1.  ?v1 <http://ekaw#organises> ?answer1.  
1.0333333333333332 <-> ?answer0 a <http://ekaw#Submitted_Paper>.  ?v1 <http://ekaw#reviewerOfPaper> ?answer0.  ?v1 <http://ekaw#organises> ?answer1.  
1.0333333333333332 <-> ?answer0 a <http://ekaw#Submitted_Paper>.  ?answer0 <http://ekaw#writtenBy> ?v1.  ?v1 <http://ekaw#organises> ?v2.  ?v2 <http://ekaw#partOf> ?answer1.  
1.0333333333333332 <-> ?answer0 a <http://ekaw#Submitted_Paper>.  ?v1 <http://ekaw#topicCoveredBy> ?answer0.  ?v1 <http://ekaw#topicCoveredBy> ?v2.  ?answer1 <http://ekaw#hasEvent> ?v2.  
1.0333333333333332 <-> ?answer0 a <http://ekaw#Submitted_Paper>.  ?answer0 <http://ekaw#hasUpdatedVersion> ?v1.  ?v1 <http://ekaw#paperPresentedAs> ?v2.  ?v2 <http://ekaw#partOf> ?answer1.  
1.0333333333333332 <-> ?answer0 a <http://ekaw#Submitted_Paper>.  ?v1 <http://ekaw#updatedVersionOf> ?answer0.  ?v2 <http://ekaw#presentationOfPaper> ?v1.  ?v2 <http://ekaw#partOf> ?answer1.  
1.0333333333333332 <-> ?answer0 a <http://ekaw#Submitted_Paper>.  ?v1 <http://ekaw#reviewerOfPaper> ?answer0.  ?answer1 <http://ekaw#organisedBy> ?v1.  
creating directory: paper_submitted_at_conference

Unary query : ?answer <http://conference#was_a_committee_chair_of> ?o2 . ?o2 <http://www.w3.org/1999/02/22-rdf-syntax-ns#type> <http://conference#Program_committee> .
Number of matched answers :5
Number of correspondences found: 5
0.0 <-> <http://ekaw-instances#paper-8367213188212198> <http://ekaw#hasReviewer> ?answer. 
0.0 <-> ?answer <http://www.w3.org/1999/02/22-rdf-syntax-ns#type> <http://ekaw#PC_Member>. 
0.0 <-> <http://ekaw-instances#review-1897148521981263_-559246915> <http://ekaw#writtenBy> ?answer. 
0.0 <-> ?answer <http://ekaw#authorOf> <http://ekaw-instances#review19126782906431114_-559246915>. 
0.0 <-> ?answer <http://ekaw#reviewerOfPaper> <http://ekaw-instances#paper459168755124257>. 

Unary query : ?answer <http://www.w3.org/1999/02/22-rdf-syntax-ns#type> <http://conference#Paper> .
Number of matched answers :8
Number of correspondences found: 3
1.0 <-> ?x <http://ekaw#hasUpdatedVersion> ?answer. ?x a <http://ekaw#Paper>. 
1.0 <-> ?answer <http://www.w3.org/1999/02/22-rdf-syntax-ns#type> <http://ekaw#Paper>. 
1.0 <-> ?answer <http://ekaw#updatedVersionOf> ?y. ?y a <http://ekaw#Paper>. 
creating directory: regular_paper

Binary query : { ?answer0 <http://www.w3.org/1999/02/22-rdf-syntax-ns#type> <http://conference#Paper> .   } UNION { ?answer0 <http://www.w3.org/1999/02/22-rdf-syntax-ns#type> <http://conference#Written_contribution> .   ?o2 <http://conference#is_the_1th_part_of> ?answer0. ?o2 <http://www.w3.org/1999/02/22-rdf-syntax-ns#type> <http://conference#Written_contribution> .   }  ?answer0 <http://www.w3.org/2000/01/rdf-schema#label> ?answer1.
Number of matched answers :8
Number of correspondences found: 1
3.3 <-> ?answer0 a <http://ekaw#Paper>.  ?answer0 <http://www.w3.org/2000/01/rdf-schema#label> ?answer1.  
creating directory: paper_title

Unary query : ?answer <http://www.w3.org/1999/02/22-rdf-syntax-ns#type> <http://conference#Presentation> . minus{ ?answer a <http://conference#Invited_talk> . }
Number of matched answers :8
Number of correspondences found: 2
0.625 <-> ?answer <http://www.w3.org/1999/02/22-rdf-syntax-ns#type> <http://ekaw#Contributed_Talk>. 
0.6315789473684211 <-> ?answer <http://ekaw#presentationOfPaper> ?someObject. 
creating directory: paper_presentation

Binary query : ?answer0 <http://www.w3.org/1999/02/22-rdf-syntax-ns#type> <http://conference#Abstract> .   ?answer0 <http://conference#is_the_1th_part_of> ?o2. ?o2 <http://www.w3.org/1999/02/22-rdf-syntax-ns#type> <http://conference#Written_contribution> .    ?answer0 <http://www.w3.org/2000/01/rdf-schema#label> ?answer1.
Number of matched answers :0
Number of correspondences found: 0

Binary query : ?answer0 a <http://conference#Presentation> . ?answer0 <http://conference#has_an_abstract> ?o2 . ?o4 <http://conference#has_an_abstract> ?o2 . ?o4 a <http://conference#Written_contribution> . ?o4 <http://conference#is_submitted_at> ?answer1.
Number of matched answers :8
Number of correspondences found: 2
1.021739130434783 <-> ?answer0 a <http://ekaw#Individual_Presentation>.  ?answer0 <http://ekaw#partOf> ?answer1.  
1.021739130434783 <-> ?answer0 a <http://ekaw#Individual_Presentation>.  ?answer1 <http://ekaw#hasEvent> ?answer0.  
creating directory: presentation_in_conference
Matching process ended
