pair,ss,sc,cs,cc,tot
agrotaxon-agrovoc,2,10,1,5,18
agrotaxon-dbpedia,4,10,0,58,72
agrotaxon-taxref,2,17,3,29,51
agrovoc-agrotaxon,0,0,5,14,19
agrovoc-dbpedia,1,1,4,22,28
agrovoc-taxref,0,3,1,15,19
dbpedia-agrotaxon,2,5,1,17,25
dbpedia-agrovoc,0,1,1,4,6
dbpedia-taxref,0,6,2,5,13
taxref-agrotaxon,1,2,4,18,25
taxref-agrovoc,1,4,1,8,14
taxref-dbpedia,0,5,3,30,38
TOTAL,13,64,26,225,328
