pair,ss,sc,cs,cc,tot
1,218,377,93,463,1151
2,220,478,98,497,1293
3,222,533,99,575,1429
4,224,595,100,594,1513
5,226,615,101,625,1567
6,227,647,102,620,1596
7,229,656,103,650,1638
8,230,662,103,646,1641
9,227,681,104,665,1677
10,229,704,104,662,1699
20,228,748,105,718,1799
100,232,843,101,769,1945
