pair,ss,sc,cs,cc,tot
cmt-conference,8,18,5,7,38
cmt-confOf,7,0,4,2,13
cmt-edas,10,13,4,3,30
cmt-ekaw,6,24,3,4,37
conference-cmt,6,17,7,23,53
conference-confOf,9,0,6,8,23
conference-edas,10,16,9,26,61
conference-ekaw,11,32,10,60,113
confOf-cmt,10,21,2,13,46
confOf-conference,11,11,1,24,47
confOf-edas,13,2,5,31,51
confOf-ekaw,9,10,2,20,41
edas-cmt,11,23,1,28,63
edas-conference,11,25,2,24,62
edas-confOf,13,5,6,12,36
edas-ekaw,12,41,1,51,105
ekaw-cmt,4,11,4,24,43
ekaw-conference,11,5,5,47,68
ekaw-confOf,6,0,4,10,20
ekaw-edas,7,6,3,38,54
TOTAL,185,280,84,455,1004
