{   "source_ontology": 
	{       "sparqlEndpoint":"http://localhost:3030/dbpedia/",
      "query_templates": "query_templates/DBpedia/"},
    "target_ontology": 
	{       "sparqlEndpoint":"http://localhost:3030/AgronomicTaxon/",
      "query_templates": "query_templates/generic/"},
    "CQAs_SPARQL_folder" : "needs/dbpedia/",
    "output": [{"type":"edoal",
                "file":"./output/taxon_local/dbpedia-agrotaxon.edoal"},
		{"type":"query",
		"folder":"./output/taxon_local-query/dbpedia-agrotaxon"}
]
}
